{
    "data": [
        {
            "cnpj": "58659231000191",
            "cgf": 72319160,
            "razaoSocial": "SUNSET KIDS LTDA",
            "codRegime": 7,
            "regime": "MICROEMPRESA",
            "matriz": true,
            "situacao": "Ativo",
            "jangadas": null,
            "status": null,
            "indicadores": 0,
            "divergencias": 0,
            "efdPgdas": 0,
            "inventario": 0
        },
        {
            "cnpj": "58181104000120",
            "cgf": 72251808,
            "razaoSocial": "NOVA EMPORIO RS LTDA - ME",
            "codRegime": 1,
            "regime": "NORMAL",
            "matriz": true,
            "situacao": "Ativo",
            "jangadas": 5,
            "status": null,
            "indicadores": 0,
            "divergencias": 0,
            "efdPgdas": 0,
            "inventario": 0
        },
        {
            "cnpj": "57426564000108",
            "cgf": 72156791,
            "razaoSocial": "GUIMARAES COMERCIO VAREJISTA DE MATERIAIS DE CONTRUCAO LTDA",
            "codRegime": 7,
            "regime": "MICROEMPRESA",
            "matriz": true,
            "situacao": "Ativo",
            "jangadas": null,
            "status": null,
            "indicadores": 0,
            "divergencias": 0,
            "efdPgdas": 0,
            "inventario": 0
        },
        {
            "cnpj": "32202914000121",
            "cgf": 67914357,
            "razaoSocial": "KRONUS VARIEDADES LTDA",
            "codRegime": 7,
            "regime": "MICROEMPRESA",
            "matriz": true,
            "situacao": "Ativo",
            "jangadas": null,
            "status": null,
            "indicadores": 0,
            "divergencias": 0,
            "efdPgdas": 0,
            "inventario": 0
        },
        {
            "cnpj": "32176867000199",
            "cgf": 67911218,
            "razaoSocial": "FINOCELL COMERCIO DE ELETRONICOS IMPORTADOS LTDA",
            "codRegime": 6,
            "regime": "OUTROS",
            "matriz": true,
            "situacao": "Baixado Pedido",
            "jangadas": null,
            "status": null,
            "indicadores": 0,
            "divergencias": 0,
            "efdPgdas": 0,
            "inventario": 0
        },
        {
            "cnpj": "57352581000148",
            "cgf": 72147415,
            "razaoSocial": "LF COMERCIO VAREJISTA DE FRIOS E MINIMERCADO LTDA",
            "codRegime": 1,
            "regime": "NORMAL",
            "matriz": true,
            "situacao": "Ativo",
            "jangadas": null,
            "status": null,
            "indicadores": 0,
            "divergencias": 0,
            "efdPgdas": 0,
            "inventario": 0
        },
        {
            "cnpj": "31503175000145",
            "cgf": 67801536,
            "razaoSocial": "FRANCISCO SAMUEL DO NASCIMENTO PINTO",
            "codRegime": 4,
            "regime": "MEI",
            "matriz": true,
            "situacao": "Ativo",
            "jangadas": null,
            "status": null,
            "indicadores": 0,
            "divergencias": 0,
            "efdPgdas": 0,
            "inventario": 0
        },
        {
            "cnpj": "56991842000107",
            "cgf": 72121505,
            "razaoSocial": "GN SUBLIMAIS INDUSTRIA e COMERCIO DE CONFECCOES LTDA",
            "codRegime": 7,
            "regime": "MICROEMPRESA",
            "matriz": true,
            "situacao": "Ativo",
            "jangadas": null,
            "status": null,
            "indicadores": 0,
            "divergencias": 0,
            "efdPgdas": 0,
            "inventario": 0
        },
        {
            "cnpj": "56703129000110",
            "cgf": 72080388,
            "razaoSocial": "EFATA TRANPORTES DE VEICULOS PARA TODO O BRASIL GUINCHOS E CEGONHA LTDA - ME",
            "codRegime": 7,
            "regime": "MICROEMPRESA",
            "matriz": true,
            "situacao": "Ativo",
            "jangadas": null,
            "status": null,
            "indicadores": 0,
            "divergencias": 0,
            "efdPgdas": 0,
            "inventario": 0
        },
        {
            "cnpj": "56525525000103",
            "cgf": 72084928,
            "razaoSocial": "REVAYAH COMERCIO DE PRODUTOS E BEBIDAS LTDA",
            "codRegime": 7,
            "regime": "MICROEMPRESA",
            "matriz": true,
            "situacao": "Ativo",
            "jangadas": null,
            "status": null,
            "indicadores": 0,
            "divergencias": 0,
            "efdPgdas": 0,
            "inventario": 0
        }
    ],
    "totalElements": 327,
    "totalPages": 33,
    "pageSize": 10,
    "pageNumber": 28,
    "version": "v1"
}