{
    "data": [
        {
            "cnpj": "16610437000187",
            "cgf": 66135567,
            "razaoSocial": "CAUCAIAVISION COMERCIO DE ARTIGOS OPTICOS LTDA. - ME",
            "codRegime": 7,
            "regime": "MICROEMPRESA",
            "matriz": true,
            "situacao": "Ativo",
            "jangadas": null,
            "status": null,
            "indicadores": 0,
            "divergencias": 0,
            "efdPgdas": 0,
            "inventario": 0
        },
        {
            "cnpj": "16563693000160",
            "cgf": 66105277,
            "razaoSocial": "TIANGUA COMERCIO E MANUTENCAO DE MATERIAIS CONTRA INCENDIOS",
            "codRegime": 7,
            "regime": "MICROEMPRESA",
            "matriz": true,
            "situacao": "Ativo",
            "jangadas": null,
            "status": null,
            "indicadores": 0,
            "divergencias": 0,
            "efdPgdas": 0,
            "inventario": 0
        },
        {
            "cnpj": "34292467000255",
            "cgf": 70689237,
            "razaoSocial": "VILA ACAI BM LTDA",
            "codRegime": 7,
            "regime": "MICROEMPRESA",
            "matriz": false,
            "situacao": "Baixado Pedido",
            "jangadas": null,
            "status": null,
            "indicadores": 0,
            "divergencias": 0,
            "efdPgdas": 0,
            "inventario": 0
        },
        {
            "cnpj": "34292467000174",
            "cgf": 69910626,
            "razaoSocial": "VILA ACAI BM LTDA",
            "codRegime": 7,
            "regime": "MICROEMPRESA",
            "matriz": true,
            "situacao": "Ativo",
            "jangadas": null,
            "status": null,
            "indicadores": 0,
            "divergencias": 0,
            "efdPgdas": 0,
            "inventario": 0
        },
        {
            "cnpj": "33819548000117",
            "cgf": 69484929,
            "razaoSocial": "CAMILA DOCE IDEIA LTDA",
            "codRegime": 7,
            "regime": "MICROEMPRESA",
            "matriz": true,
            "situacao": "Ativo",
            "jangadas": null,
            "status": null,
            "indicadores": 0,
            "divergencias": 0,
            "efdPgdas": 0,
            "inventario": 0
        },
        {
            "cnpj": "15024264000152",
            "cgf": 65929217,
            "razaoSocial": "ITALO J B BARROS",
            "codRegime": 7,
            "regime": "MICROEMPRESA",
            "matriz": true,
            "situacao": "Ativo",
            "jangadas": null,
            "status": null,
            "indicadores": 0,
            "divergencias": 0,
            "efdPgdas": 0,
            "inventario": 0
        },
        {
            "cnpj": "32836396000106",
            "cgf": 69286043,
            "razaoSocial": "A SILVA LOCACAO, SERVICOS E COMERCIO DE PECAS MOTOCICLETAS L",
            "codRegime": 7,
            "regime": "MICROEMPRESA",
            "matriz": true,
            "situacao": "Ativo",
            "jangadas": null,
            "status": null,
            "indicadores": 0,
            "divergencias": 0,
            "efdPgdas": 0,
            "inventario": 0
        },
        {
            "cnpj": "32202914000121",
            "cgf": 67914357,
            "razaoSocial": "KRONUS VARIEDADES LTDA",
            "codRegime": 7,
            "regime": "MICROEMPRESA",
            "matriz": true,
            "situacao": "Ativo",
            "jangadas": null,
            "status": null,
            "indicadores": 0,
            "divergencias": 0,
            "efdPgdas": 0,
            "inventario": 0
        },
        {
            "cnpj": "32176867000199",
            "cgf": 67911218,
            "razaoSocial": "FINOCELL COMERCIO DE ELETRONICOS IMPORTADOS LTDA",
            "codRegime": 6,
            "regime": "OUTROS",
            "matriz": true,
            "situacao": "Baixado Pedido",
            "jangadas": null,
            "status": null,
            "indicadores": 0,
            "divergencias": 0,
            "efdPgdas": 0,
            "inventario": 0
        },
        {
            "cnpj": "31503175000145",
            "cgf": 67801536,
            "razaoSocial": "FRANCISCO SAMUEL DO NASCIMENTO PINTO",
            "codRegime": 4,
            "regime": "MEI",
            "matriz": true,
            "situacao": "Ativo",
            "jangadas": null,
            "status": null,
            "indicadores": 0,
            "divergencias": 0,
            "efdPgdas": 0,
            "inventario": 0
        }
    ],
    "totalElements": 327,
    "totalPages": 33,
    "pageSize": 10,
    "pageNumber": 27,
    "version": "v1"
}