{
    "data": [
        {
            "cnpj": "24937274000170",
            "cgf": 65000870,
            "razaoSocial": "JC MOTA DO AMARAL OFICINA DE MOTOS LTDA",
            "codRegime": 1,
            "regime": "NORMAL",
            "matriz": true,
            "situacao": "Ativo",
            "jangadas": 4,
            "status": null,
            "indicadores": 1,
            "divergencias": 16,
            "efdPgdas": 0,
            "inventario": 0
        },
        {
            "cnpj": "11075280000113",
            "cgf": 61907332,
            "razaoSocial": "FRANCISCO XAVIER NETO ME",
            "codRegime": 1,
            "regime": "NORMAL",
            "matriz": true,
            "situacao": "Ativo",
            "jangadas": 1,
            "status": null,
            "indicadores": 1,
            "divergencias": 13,
            "efdPgdas": 0,
            "inventario": 0
        },
        {
            "cnpj": "24736676000106",
            "cgf": 67563694,
            "razaoSocial": "JULIANA DE FREITAS CASTRO RABELO ATIVIDADES DE ESTETICA",
            "codRegime": 7,
            "regime": "MICROEMPRESA",
            "matriz": true,
            "situacao": "Ativo",
            "jangadas": null,
            "status": null,
            "indicadores": 1,
            "divergencias": 3,
            "efdPgdas": 0,
            "inventario": 0
        },
        {
            "cnpj": "23996720000154",
            "cgf": 64836096,
            "razaoSocial": "EUSEBIO VISION COMERCIO DE ARTIGOS OPTICOS LTDA ME",
            "codRegime": 7,
            "regime": "MICROEMPRESA",
            "matriz": true,
            "situacao": "Ativo",
            "jangadas": null,
            "status": null,
            "indicadores": 1,
            "divergencias": 1,
            "efdPgdas": 0,
            "inventario": 0
        },
        {
            "cnpj": "03175564000153",
            "cgf": 62811002,
            "razaoSocial": "F J MELO MATERIAL DE CONSTRUCAO LTDA",
            "codRegime": 1,
            "regime": "NORMAL",
            "matriz": true,
            "situacao": "Ativo",
            "jangadas": 4,
            "status": "Monitoramento",
            "indicadores": 1,
            "divergencias": 21,
            "efdPgdas": 0,
            "inventario": 0
        },
        {
            "cnpj": "36965599000145",
            "cgf": 62570790,
            "razaoSocial": "SHIRLLEY MARA BESSA PEREIRA - ME",
            "codRegime": 7,
            "regime": "MICROEMPRESA",
            "matriz": true,
            "situacao": "Ativo",
            "jangadas": null,
            "status": null,
            "indicadores": 1,
            "divergencias": 1,
            "efdPgdas": 0,
            "inventario": 0
        },
        {
            "cnpj": "26909643000146",
            "cgf": 63060671,
            "razaoSocial": "M CHAVES OLIVEIRA - ME",
            "codRegime": 6,
            "regime": "OUTROS",
            "matriz": true,
            "situacao": "Baixado Pedido",
            "jangadas": null,
            "status": null,
            "indicadores": 1,
            "divergencias": 4,
            "efdPgdas": 0,
            "inventario": 0
        },
        {
            "cnpj": "26958105000141",
            "cgf": 66371724,
            "razaoSocial": "CSM FUTEBOL CLUBE LTDA",
            "codRegime": 7,
            "regime": "MICROEMPRESA",
            "matriz": true,
            "situacao": "Ativo",
            "jangadas": null,
            "status": null,
            "indicadores": 1,
            "divergencias": 1,
            "efdPgdas": 0,
            "inventario": 1
        },
        {
            "cnpj": "23343540000254",
            "cgf": 64716899,
            "razaoSocial": "BRN COMERCIO DE CALCADOS LTDA",
            "codRegime": 1,
            "regime": "NORMAL",
            "matriz": false,
            "situacao": "Ativo",
            "jangadas": 4,
            "status": null,
            "indicadores": 1,
            "divergencias": 12,
            "efdPgdas": 0,
            "inventario": 0
        },
        {
            "cnpj": "02174437000177",
            "cgf": 69954275,
            "razaoSocial": "PLANETA FERROVIA COM\u00c9RCIO DE PRODUTOS OPTICOS LTDA EPP",
            "codRegime": 9,
            "regime": "EPP",
            "matriz": true,
            "situacao": "Ativo",
            "jangadas": null,
            "status": null,
            "indicadores": 1,
            "divergencias": 2,
            "efdPgdas": 0,
            "inventario": 0
        }
    ],
    "totalElements": 327,
    "totalPages": 33,
    "pageSize": 10,
    "pageNumber": 12,
    "version": "v1"
}