{
    "data": [
        {
            "cnpj": "02908742000307",
            "cgf": 61337420,
            "razaoSocial": "NUTRICAO COMERCIO E SERVICOS LTDA",
            "codRegime": 1,
            "regime": "NORMAL",
            "matriz": false,
            "situacao": "Ativo",
            "jangadas": 3,
            "status": null,
            "indicadores": 4,
            "divergencias": 37,
            "efdPgdas": 0,
            "inventario": 0
        },
        {
            "cnpj": "17608115000247",
            "cgf": 67391869,
            "razaoSocial": "COMERCIAL PRAIA E MAR LTDA",
            "codRegime": 1,
            "regime": "NORMAL",
            "matriz": false,
            "situacao": "Ativo",
            "jangadas": 4,
            "status": null,
            "indicadores": 4,
            "divergencias": 265,
            "efdPgdas": 0,
            "inventario": 0
        },
        {
            "cnpj": "60879472000198",
            "cgf": 72603321,
            "razaoSocial": "S&S FRIOS E ALIMENTOS LTDA - EPP",
            "codRegime": 1,
            "regime": "NORMAL",
            "matriz": true,
            "situacao": "Ativo",
            "jangadas": 5,
            "status": null,
            "indicadores": 4,
            "divergencias": 7,
            "efdPgdas": 0,
            "inventario": 0
        },
        {
            "cnpj": "13258237000119",
            "cgf": 65552202,
            "razaoSocial": "NIPAN MASSAS CONGELADAS LTDA",
            "codRegime": 1,
            "regime": "NORMAL",
            "matriz": true,
            "situacao": "Ativo",
            "jangadas": 4,
            "status": "Monitoramento",
            "indicadores": 3,
            "divergencias": 70,
            "efdPgdas": 0,
            "inventario": 0
        },
        {
            "cnpj": "08874086000193",
            "cgf": 62103881,
            "razaoSocial": "CURA CERTA COMERCIO VAREJISTA DE PRODUTOS FARMACEUTIVOS LTDA",
            "codRegime": 1,
            "regime": "NORMAL",
            "matriz": true,
            "situacao": "Ativo",
            "jangadas": 2,
            "status": null,
            "indicadores": 3,
            "divergencias": 14,
            "efdPgdas": 12,
            "inventario": 1
        },
        {
            "cnpj": "37006453000135",
            "cgf": 62539051,
            "razaoSocial": "J G M RIBEIRO",
            "codRegime": 1,
            "regime": "NORMAL",
            "matriz": true,
            "situacao": "Ativo",
            "jangadas": 4,
            "status": null,
            "indicadores": 3,
            "divergencias": 55,
            "efdPgdas": 0,
            "inventario": 0
        },
        {
            "cnpj": "31367585000106",
            "cgf": 67773249,
            "razaoSocial": "RACHEL DA SILVEIRA VIEIRA RODRIGUES",
            "codRegime": 7,
            "regime": "MICROEMPRESA",
            "matriz": true,
            "situacao": "Ativo",
            "jangadas": null,
            "status": null,
            "indicadores": 3,
            "divergencias": 35,
            "efdPgdas": 24,
            "inventario": 2
        },
        {
            "cnpj": "28429030000137",
            "cgf": 66796091,
            "razaoSocial": "A L S MENDES MOVEIS",
            "codRegime": 1,
            "regime": "NORMAL",
            "matriz": true,
            "situacao": "Ativo",
            "jangadas": 5,
            "status": null,
            "indicadores": 3,
            "divergencias": 8,
            "efdPgdas": 0,
            "inventario": 0
        },
        {
            "cnpj": "31649378000144",
            "cgf": 67824080,
            "razaoSocial": "NARCICIO A MENDES",
            "codRegime": 1,
            "regime": "NORMAL",
            "matriz": true,
            "situacao": "Ativo",
            "jangadas": 2,
            "status": null,
            "indicadores": 3,
            "divergencias": 21,
            "efdPgdas": 3,
            "inventario": 0
        },
        {
            "cnpj": "07121465000140",
            "cgf": 61788627,
            "razaoSocial": "I M PEREIRA",
            "codRegime": 1,
            "regime": "NORMAL",
            "matriz": true,
            "situacao": "Ativo",
            "jangadas": 4,
            "status": "Fiscaliza\u00e7\u00e3o",
            "indicadores": 3,
            "divergencias": 24,
            "efdPgdas": 0,
            "inventario": 0
        }
    ],
    "totalElements": 327,
    "totalPages": 33,
    "pageSize": 10,
    "pageNumber": 3,
    "version": "v1"
}