{
    "data": [
        {
            "cnpj": "27040637000168",
            "cgf": 66425492,
            "razaoSocial": "VILA ACAI LTDA ME",
            "codRegime": 7,
            "regime": "MICROEMPRESA",
            "matriz": true,
            "situacao": "Ativo",
            "jangadas": null,
            "status": null,
            "indicadores": 0,
            "divergencias": 0,
            "efdPgdas": 0,
            "inventario": 0
        },
        {
            "cnpj": "27040637000249",
            "cgf": 73111619,
            "razaoSocial": "VILA ACAI LTDA ME",
            "codRegime": 7,
            "regime": "MICROEMPRESA",
            "matriz": false,
            "situacao": "Ativo",
            "jangadas": null,
            "status": null,
            "indicadores": 0,
            "divergencias": 0,
            "efdPgdas": 0,
            "inventario": 0
        },
        {
            "cnpj": "07873084000117",
            "cgf": 61919462,
            "razaoSocial": "A L B COMERCIO DE CALCADOS LTDA",
            "codRegime": 9,
            "regime": "EPP",
            "matriz": true,
            "situacao": "Ativo",
            "jangadas": null,
            "status": null,
            "indicadores": 0,
            "divergencias": 0,
            "efdPgdas": 0,
            "inventario": 0
        },
        {
            "cnpj": "26628707000130",
            "cgf": 72806893,
            "razaoSocial": "ENGMAN SERVICOS DE ENGENHARIA E MANUTENCAO LTDA",
            "codRegime": 6,
            "regime": "OUTROS",
            "matriz": true,
            "situacao": "Baixado Pedido",
            "jangadas": null,
            "status": null,
            "indicadores": 0,
            "divergencias": 0,
            "efdPgdas": 0,
            "inventario": 0
        },
        {
            "cnpj": "26321825000100",
            "cgf": 65456548,
            "razaoSocial": "CS EMBALAGENS LTDA",
            "codRegime": 7,
            "regime": "MICROEMPRESA",
            "matriz": true,
            "situacao": "Ativo",
            "jangadas": null,
            "status": null,
            "indicadores": 0,
            "divergencias": 0,
            "efdPgdas": 0,
            "inventario": 0
        },
        {
            "cnpj": "07516056000142",
            "cgf": 61834092,
            "razaoSocial": "FRANCISCO DAS CHAGAS DE ALMEIDA BARROSO",
            "codRegime": 9,
            "regime": "EPP",
            "matriz": true,
            "situacao": "Ativo",
            "jangadas": null,
            "status": null,
            "indicadores": 0,
            "divergencias": 0,
            "efdPgdas": 0,
            "inventario": 0
        },
        {
            "cnpj": "24736676000297",
            "cgf": 72806915,
            "razaoSocial": "JULIANA DE FREITAS CASTRO RABELO ATIVIDADES DE ESTETICA",
            "codRegime": 7,
            "regime": "MICROEMPRESA",
            "matriz": false,
            "situacao": "Ativo",
            "jangadas": null,
            "status": null,
            "indicadores": 0,
            "divergencias": 0,
            "efdPgdas": 0,
            "inventario": 0
        },
        {
            "cnpj": "11192199000113",
            "cgf": 63913950,
            "razaoSocial": "FABRICIO RODRIGUES ALVES",
            "codRegime": 7,
            "regime": "MICROEMPRESA",
            "matriz": true,
            "situacao": "Ativo",
            "jangadas": null,
            "status": null,
            "indicadores": 0,
            "divergencias": 0,
            "efdPgdas": 0,
            "inventario": 0
        },
        {
            "cnpj": "07373712000103",
            "cgf": 61802590,
            "razaoSocial": "S N K COMERCIO DE ARTIGOS OPTICOS LTDA ME",
            "codRegime": 7,
            "regime": "MICROEMPRESA",
            "matriz": true,
            "situacao": "Ativo",
            "jangadas": null,
            "status": null,
            "indicadores": 0,
            "divergencias": 0,
            "efdPgdas": 0,
            "inventario": 0
        },
        {
            "cnpj": "03591742000127",
            "cgf": 62912615,
            "razaoSocial": "03.591.742 MARIA VICENCIA FREITAS BARBOSA DE LIMA",
            "codRegime": 4,
            "regime": "MEI",
            "matriz": true,
            "situacao": "Ativo",
            "jangadas": null,
            "status": null,
            "indicadores": 0,
            "divergencias": 0,
            "efdPgdas": 0,
            "inventario": 0
        }
    ],
    "totalElements": 327,
    "totalPages": 33,
    "pageSize": 10,
    "pageNumber": 20,
    "version": "v1"
}