{
    "data": [
        {
            "cnpj": "35057801000178",
            "cgf": 71619771,
            "razaoSocial": "J R LIMA SOUSA COMERCIO DE ALIMENTOS LTDA",
            "codRegime": 1,
            "regime": "NORMAL",
            "matriz": true,
            "situacao": "Ativo Edital",
            "jangadas": 1,
            "status": "Monitoramento",
            "indicadores": 6,
            "divergencias": 175,
            "efdPgdas": 1,
            "inventario": 0
        },
        {
            "cnpj": "12981026000147",
            "cgf": 64209318,
            "razaoSocial": "MERCANTIL SUPER CUMBUCO LTDA",
            "codRegime": 1,
            "regime": "NORMAL",
            "matriz": true,
            "situacao": "Ativo",
            "jangadas": 4,
            "status": "Monitoramento",
            "indicadores": 5,
            "divergencias": 622,
            "efdPgdas": 0,
            "inventario": 0
        },
        {
            "cnpj": "12981026000309",
            "cgf": 70393095,
            "razaoSocial": "MERCANTIL SUPER CUMBUCO LTDA",
            "codRegime": 1,
            "regime": "NORMAL",
            "matriz": false,
            "situacao": "Ativo",
            "jangadas": 4,
            "status": "Monitoramento",
            "indicadores": 5,
            "divergencias": 552,
            "efdPgdas": 0,
            "inventario": 0
        },
        {
            "cnpj": "02908742000145",
            "cgf": 62746987,
            "razaoSocial": "NUTRICAO COMERCIO E SERVICOS LTDA",
            "codRegime": 1,
            "regime": "NORMAL",
            "matriz": true,
            "situacao": "Ativo",
            "jangadas": 3,
            "status": "Monitoramento",
            "indicadores": 5,
            "divergencias": 76,
            "efdPgdas": 0,
            "inventario": 0
        },
        {
            "cnpj": "17608115000166",
            "cgf": 65081250,
            "razaoSocial": "COMERCIAL PRAIA E MAR LTDA",
            "codRegime": 1,
            "regime": "NORMAL",
            "matriz": true,
            "situacao": "Ativo",
            "jangadas": 4,
            "status": null,
            "indicadores": 5,
            "divergencias": 274,
            "efdPgdas": 0,
            "inventario": 0
        },
        {
            "cnpj": "08571105000102",
            "cgf": 62054317,
            "razaoSocial": "HENRIQUE SOUSA CAETANO LTDA",
            "codRegime": 7,
            "regime": "MICROEMPRESA",
            "matriz": true,
            "situacao": "Ativo",
            "jangadas": null,
            "status": null,
            "indicadores": 4,
            "divergencias": 16,
            "efdPgdas": 12,
            "inventario": 1
        },
        {
            "cnpj": "02908742000307",
            "cgf": 61337420,
            "razaoSocial": "NUTRICAO COMERCIO E SERVICOS LTDA",
            "codRegime": 1,
            "regime": "NORMAL",
            "matriz": false,
            "situacao": "Ativo",
            "jangadas": 3,
            "status": null,
            "indicadores": 4,
            "divergencias": 37,
            "efdPgdas": 0,
            "inventario": 0
        },
        {
            "cnpj": "01639337000106",
            "cgf": 69821313,
            "razaoSocial": "SABOR DOCES e SALGADOS LTDA",
            "codRegime": 1,
            "regime": "NORMAL",
            "matriz": true,
            "situacao": "Ativo",
            "jangadas": 3,
            "status": null,
            "indicadores": 4,
            "divergencias": 55,
            "efdPgdas": 0,
            "inventario": 0
        },
        {
            "cnpj": "00224205000150",
            "cgf": 69408327,
            "razaoSocial": "CBV BEBIDAS LTDA",
            "codRegime": 1,
            "regime": "NORMAL",
            "matriz": true,
            "situacao": "Ativo",
            "jangadas": 3,
            "status": null,
            "indicadores": 4,
            "divergencias": 24,
            "efdPgdas": 0,
            "inventario": 1
        },
        {
            "cnpj": "02301602000104",
            "cgf": 69974195,
            "razaoSocial": "NATAN DISTRIBUIDORA LTDA-ME",
            "codRegime": 1,
            "regime": "NORMAL",
            "matriz": true,
            "situacao": "Ativo",
            "jangadas": 3,
            "status": "Monitoramento",
            "indicadores": 4,
            "divergencias": 364,
            "efdPgdas": 0,
            "inventario": 1
        }
    ],
    "totalElements": 327,
    "totalPages": 33,
    "pageSize": 10,
    "pageNumber": 1,
    "version": "v1"
}