{
    "data": [
        {
            "cnpj": "40453230000120",
            "cgf": 61414182,
            "razaoSocial": "CARLIANA DA COSTA LOPES",
            "codRegime": 7,
            "regime": "MICROEMPRESA",
            "matriz": true,
            "situacao": "Ativo",
            "jangadas": null,
            "status": null,
            "indicadores": 1,
            "divergencias": 5,
            "efdPgdas": 0,
            "inventario": 0
        },
        {
            "cnpj": "02908742000579",
            "cgf": 72170352,
            "razaoSocial": "NUTRICAO COMERCIO E SERVICOS LTDA",
            "codRegime": 1,
            "regime": "NORMAL",
            "matriz": false,
            "situacao": "Ativo",
            "jangadas": 3,
            "status": null,
            "indicadores": 1,
            "divergencias": 1,
            "efdPgdas": 0,
            "inventario": 0
        },
        {
            "cnpj": "40018474000185",
            "cgf": 61263001,
            "razaoSocial": "FILE PRIME RESTAURANTE LTDA",
            "codRegime": 1,
            "regime": "NORMAL",
            "matriz": true,
            "situacao": "Ativo",
            "jangadas": 5,
            "status": "Monitoramento",
            "indicadores": 1,
            "divergencias": 1,
            "efdPgdas": 0,
            "inventario": 0
        },
        {
            "cnpj": "40066919000100",
            "cgf": 70940584,
            "razaoSocial": "ATIVOS REABILITACAO LTDA",
            "codRegime": 1,
            "regime": "NORMAL",
            "matriz": true,
            "situacao": "Ativo",
            "jangadas": 5,
            "status": null,
            "indicadores": 1,
            "divergencias": 11,
            "efdPgdas": 0,
            "inventario": 0
        },
        {
            "cnpj": "41393030000192",
            "cgf": 61268119,
            "razaoSocial": "EMPACOTADORA DE ALIMENTOS VO MANNY LTDA",
            "codRegime": 1,
            "regime": "NORMAL",
            "matriz": true,
            "situacao": "Ativo",
            "jangadas": 5,
            "status": null,
            "indicadores": 1,
            "divergencias": 1,
            "efdPgdas": 1,
            "inventario": 0
        },
        {
            "cnpj": "48098431000169",
            "cgf": 70926131,
            "razaoSocial": "GEORGE BEZERRA PEREIRA DE LIMA - ME",
            "codRegime": 7,
            "regime": "MICROEMPRESA",
            "matriz": true,
            "situacao": "Ativo",
            "jangadas": null,
            "status": null,
            "indicadores": 1,
            "divergencias": 2,
            "efdPgdas": 0,
            "inventario": 0
        },
        {
            "cnpj": "09454956000138",
            "cgf": 63995573,
            "razaoSocial": "JEBNET GLOBAL LINK LTDA",
            "codRegime": 1,
            "regime": "NORMAL",
            "matriz": true,
            "situacao": "Ativo",
            "jangadas": null,
            "status": "Monitoramento",
            "indicadores": 1,
            "divergencias": 5,
            "efdPgdas": 0,
            "inventario": 0
        },
        {
            "cnpj": "39615700000126",
            "cgf": 62362402,
            "razaoSocial": "ANTONIA DAS GRACAS DA SILVA PAIXAO",
            "codRegime": 7,
            "regime": "MICROEMPRESA",
            "matriz": true,
            "situacao": "Ativo",
            "jangadas": null,
            "status": null,
            "indicadores": 1,
            "divergencias": 1,
            "efdPgdas": 0,
            "inventario": 0
        },
        {
            "cnpj": "20785430000335",
            "cgf": 71781986,
            "razaoSocial": "LED PLANET IMPORTADORA  E COMERCIO DE MATERIAIS ELETRICOS LTDA",
            "codRegime": 1,
            "regime": "NORMAL",
            "matriz": false,
            "situacao": "Baixado Pedido",
            "jangadas": 4,
            "status": null,
            "indicadores": 1,
            "divergencias": 2,
            "efdPgdas": 0,
            "inventario": 0
        },
        {
            "cnpj": "20743516000133",
            "cgf": 63534398,
            "razaoSocial": "HOLANDA MAIA COMERCIO DE MEDICAMENTOS LTDA",
            "codRegime": 1,
            "regime": "NORMAL",
            "matriz": true,
            "situacao": "Ativo",
            "jangadas": 4,
            "status": null,
            "indicadores": 1,
            "divergencias": 1,
            "efdPgdas": 0,
            "inventario": 0
        }
    ],
    "totalElements": 327,
    "totalPages": 33,
    "pageSize": 10,
    "pageNumber": 14,
    "version": "v1"
}