{
    "data": [
        {
            "cnpj": "08571105000102",
            "cgf": 62054317,
            "razaoSocial": "HENRIQUE SOUSA CAETANO LTDA",
            "codRegime": 7,
            "regime": "MICROEMPRESA",
            "matriz": true,
            "situacao": "Ativo",
            "jangadas": null,
            "status": null,
            "indicadores": 4,
            "divergencias": 16,
            "efdPgdas": 12,
            "inventario": 1
        },
        {
            "cnpj": "17608115000247",
            "cgf": 67391869,
            "razaoSocial": "COMERCIAL PRAIA E MAR LTDA",
            "codRegime": 1,
            "regime": "NORMAL",
            "matriz": false,
            "situacao": "Ativo",
            "jangadas": 4,
            "status": null,
            "indicadores": 4,
            "divergencias": 265,
            "efdPgdas": 0,
            "inventario": 0
        },
        {
            "cnpj": "20951181000572",
            "cgf": 61250996,
            "razaoSocial": "ADE COMERCIO DE CALCADOS LTDA",
            "codRegime": 1,
            "regime": "NORMAL",
            "matriz": false,
            "situacao": "Ativo",
            "jangadas": 4,
            "status": null,
            "indicadores": 4,
            "divergencias": 27,
            "efdPgdas": 0,
            "inventario": 0
        },
        {
            "cnpj": "17608115000328",
            "cgf": 67573240,
            "razaoSocial": "COMERCIAL PRAIA E MAR LTDA",
            "codRegime": 1,
            "regime": "NORMAL",
            "matriz": false,
            "situacao": "Ativo",
            "jangadas": 4,
            "status": null,
            "indicadores": 4,
            "divergencias": 32,
            "efdPgdas": 0,
            "inventario": 0
        },
        {
            "cnpj": "02301602000104",
            "cgf": 69974195,
            "razaoSocial": "NATAN DISTRIBUIDORA LTDA-ME",
            "codRegime": 1,
            "regime": "NORMAL",
            "matriz": true,
            "situacao": "Ativo",
            "jangadas": 3,
            "status": "Monitoramento",
            "indicadores": 4,
            "divergencias": 364,
            "efdPgdas": 0,
            "inventario": 1
        },
        {
            "cnpj": "20207994000129",
            "cgf": 63327562,
            "razaoSocial": "L W INDUSTRIA E COMERCIO DE GONDOLAS E CHECK OUTS LTDA",
            "codRegime": 1,
            "regime": "NORMAL",
            "matriz": true,
            "situacao": "Ativo",
            "jangadas": 4,
            "status": "Monitoramento",
            "indicadores": 4,
            "divergencias": 14,
            "efdPgdas": 0,
            "inventario": 0
        },
        {
            "cnpj": "00224205000150",
            "cgf": 69408327,
            "razaoSocial": "CBV BEBIDAS LTDA",
            "codRegime": 1,
            "regime": "NORMAL",
            "matriz": true,
            "situacao": "Ativo",
            "jangadas": 3,
            "status": null,
            "indicadores": 4,
            "divergencias": 24,
            "efdPgdas": 0,
            "inventario": 1
        },
        {
            "cnpj": "12395763000168",
            "cgf": 64100200,
            "razaoSocial": "J. P. COMERCIO DE ALIMENTOS LTDA",
            "codRegime": 1,
            "regime": "NORMAL",
            "matriz": true,
            "situacao": "Ativo",
            "jangadas": 2,
            "status": null,
            "indicadores": 4,
            "divergencias": 18,
            "efdPgdas": 0,
            "inventario": 0
        },
        {
            "cnpj": "23486871000162",
            "cgf": 66187150,
            "razaoSocial": "FRANCISCO EVANILDO LIMA DA SILVA ME",
            "codRegime": 1,
            "regime": "NORMAL",
            "matriz": true,
            "situacao": "Ativo",
            "jangadas": 2,
            "status": null,
            "indicadores": 4,
            "divergencias": 40,
            "efdPgdas": 1,
            "inventario": 0
        },
        {
            "cnpj": "50289096000128",
            "cgf": 71272461,
            "razaoSocial": "SKY DENIM PROCESSAMENTO TEXTIL LTDA",
            "codRegime": 1,
            "regime": "NORMAL",
            "matriz": true,
            "situacao": "Ativo",
            "jangadas": 3,
            "status": "Monitoramento",
            "indicadores": 4,
            "divergencias": 26,
            "efdPgdas": 2,
            "inventario": 0
        }
    ],
    "totalElements": 327,
    "totalPages": 33,
    "pageSize": 10,
    "pageNumber": 2,
    "version": "v1"
}