{
    "data": [
        {
            "cnpj": "05646748000422",
            "cgf": 63641682,
            "razaoSocial": "UCHOA COMERCIO DE GAS LTDA",
            "codRegime": 1,
            "regime": "NORMAL",
            "matriz": false,
            "situacao": "Ativo",
            "jangadas": 1,
            "status": null,
            "indicadores": 2,
            "divergencias": 9,
            "efdPgdas": 0,
            "inventario": 0
        },
        {
            "cnpj": "32084111000110",
            "cgf": 67915841,
            "razaoSocial": "OCULART OTICA LTDA",
            "codRegime": 9,
            "regime": "EPP",
            "matriz": true,
            "situacao": "Ativo",
            "jangadas": null,
            "status": null,
            "indicadores": 2,
            "divergencias": 189,
            "efdPgdas": 0,
            "inventario": 0
        },
        {
            "cnpj": "14953224000122",
            "cgf": 65898940,
            "razaoSocial": "F J XIMENES DISTRIBUIDORA DE BEBIDAS LTDA",
            "codRegime": 1,
            "regime": "NORMAL",
            "matriz": true,
            "situacao": "Baixado Pedido",
            "jangadas": 2,
            "status": null,
            "indicadores": 2,
            "divergencias": 7,
            "efdPgdas": 0,
            "inventario": 0
        },
        {
            "cnpj": "18631323000149",
            "cgf": 65240359,
            "razaoSocial": "PADARIA MAR E SOL LTDA",
            "codRegime": 1,
            "regime": "NORMAL",
            "matriz": true,
            "situacao": "Ativo",
            "jangadas": 5,
            "status": null,
            "indicadores": 2,
            "divergencias": 5,
            "efdPgdas": 0,
            "inventario": 0
        },
        {
            "cnpj": "33384059000180",
            "cgf": 69359202,
            "razaoSocial": "J. L. E. DE OLIVEIRA SR PANDINHA",
            "codRegime": 7,
            "regime": "MICROEMPRESA",
            "matriz": true,
            "situacao": "Ativo",
            "jangadas": null,
            "status": null,
            "indicadores": 2,
            "divergencias": 6,
            "efdPgdas": 0,
            "inventario": 0
        },
        {
            "cnpj": "13258237000461",
            "cgf": 70638306,
            "razaoSocial": "NIPAN MASSAS CONGELADAS LTDA - ME",
            "codRegime": 1,
            "regime": "NORMAL",
            "matriz": false,
            "situacao": "Baixado Pedido",
            "jangadas": null,
            "status": null,
            "indicadores": 2,
            "divergencias": 18,
            "efdPgdas": 0,
            "inventario": 0
        },
        {
            "cnpj": "20951181000300",
            "cgf": 64423875,
            "razaoSocial": "ADE COMERCIO DE CALCADOS LTDA",
            "codRegime": 1,
            "regime": "NORMAL",
            "matriz": false,
            "situacao": "Ativo",
            "jangadas": 4,
            "status": null,
            "indicadores": 2,
            "divergencias": 22,
            "efdPgdas": 0,
            "inventario": 0
        },
        {
            "cnpj": "33912498000118",
            "cgf": 69551715,
            "razaoSocial": "MASTER CAIXAS EMBALAGENS LTDA",
            "codRegime": 1,
            "regime": "NORMAL",
            "matriz": true,
            "situacao": "Ativo",
            "jangadas": 5,
            "status": null,
            "indicadores": 2,
            "divergencias": 7,
            "efdPgdas": 0,
            "inventario": 0
        },
        {
            "cnpj": "09520008000153",
            "cgf": 69262756,
            "razaoSocial": "J E F COMERCIO VAREJISTA DE GAS LTDA",
            "codRegime": 1,
            "regime": "NORMAL",
            "matriz": true,
            "situacao": "Ativo",
            "jangadas": 4,
            "status": null,
            "indicadores": 2,
            "divergencias": 5,
            "efdPgdas": 4,
            "inventario": 0
        },
        {
            "cnpj": "13258237000380",
            "cgf": 70556857,
            "razaoSocial": "NIPAN MASSAS CONGELADAS LTDA - ME",
            "codRegime": 1,
            "regime": "NORMAL",
            "matriz": false,
            "situacao": "Baixado Pedido",
            "jangadas": null,
            "status": null,
            "indicadores": 2,
            "divergencias": 6,
            "efdPgdas": 0,
            "inventario": 0
        }
    ],
    "totalElements": 327,
    "totalPages": 33,
    "pageSize": 10,
    "pageNumber": 9,
    "version": "v1"
}