{
    "data": [
        {
            "cnpj": "57069753000170",
            "cgf": 72119101,
            "razaoSocial": "COMERCIAL DE ALIMENTOS DUDA MIX LTDA",
            "codRegime": 1,
            "regime": "NORMAL",
            "matriz": true,
            "situacao": "Ativo",
            "jangadas": 4,
            "status": null,
            "indicadores": 3,
            "divergencias": 4,
            "efdPgdas": 0,
            "inventario": 0
        },
        {
            "cnpj": "37006453000135",
            "cgf": 62539051,
            "razaoSocial": "J G M RIBEIRO",
            "codRegime": 1,
            "regime": "NORMAL",
            "matriz": true,
            "situacao": "Ativo",
            "jangadas": 4,
            "status": null,
            "indicadores": 3,
            "divergencias": 55,
            "efdPgdas": 0,
            "inventario": 0
        },
        {
            "cnpj": "39710449000189",
            "cgf": 62400037,
            "razaoSocial": "A SUZILANE DA SILVA LTDA",
            "codRegime": 1,
            "regime": "NORMAL",
            "matriz": true,
            "situacao": "Ativo",
            "jangadas": 1,
            "status": null,
            "indicadores": 3,
            "divergencias": 12,
            "efdPgdas": 0,
            "inventario": 0
        },
        {
            "cnpj": "13258237000119",
            "cgf": 65552202,
            "razaoSocial": "NIPAN MASSAS CONGELADAS LTDA",
            "codRegime": 1,
            "regime": "NORMAL",
            "matriz": true,
            "situacao": "Ativo",
            "jangadas": 4,
            "status": "Monitoramento",
            "indicadores": 3,
            "divergencias": 70,
            "efdPgdas": 0,
            "inventario": 0
        },
        {
            "cnpj": "08874086000193",
            "cgf": 62103881,
            "razaoSocial": "CURA CERTA COMERCIO VAREJISTA DE PRODUTOS FARMACEUTIVOS LTDA",
            "codRegime": 1,
            "regime": "NORMAL",
            "matriz": true,
            "situacao": "Ativo",
            "jangadas": 2,
            "status": null,
            "indicadores": 3,
            "divergencias": 14,
            "efdPgdas": 12,
            "inventario": 1
        },
        {
            "cnpj": "31367585000106",
            "cgf": 67773249,
            "razaoSocial": "RACHEL DA SILVEIRA VIEIRA RODRIGUES",
            "codRegime": 7,
            "regime": "MICROEMPRESA",
            "matriz": true,
            "situacao": "Ativo",
            "jangadas": null,
            "status": null,
            "indicadores": 3,
            "divergencias": 35,
            "efdPgdas": 24,
            "inventario": 2
        },
        {
            "cnpj": "23343540000173",
            "cgf": 64701611,
            "razaoSocial": "BRN COMERCIO DE CALCADOS LTDA",
            "codRegime": 1,
            "regime": "NORMAL",
            "matriz": true,
            "situacao": "Ativo",
            "jangadas": 4,
            "status": null,
            "indicadores": 3,
            "divergencias": 17,
            "efdPgdas": 0,
            "inventario": 0
        },
        {
            "cnpj": "02908742000498",
            "cgf": 70265976,
            "razaoSocial": "NUTRICAO COMERCIO E SERVICOS LTDA",
            "codRegime": 1,
            "regime": "NORMAL",
            "matriz": false,
            "situacao": "Ativo",
            "jangadas": 3,
            "status": "Monitoramento",
            "indicadores": 3,
            "divergencias": 12,
            "efdPgdas": 0,
            "inventario": 0
        },
        {
            "cnpj": "00973755000172",
            "cgf": 69570612,
            "razaoSocial": "COMERCIAL ESTIVAS DE ALIMENTOS LTDA",
            "codRegime": 1,
            "regime": "NORMAL",
            "matriz": true,
            "situacao": "Baixado Oficio",
            "jangadas": null,
            "status": null,
            "indicadores": 3,
            "divergencias": 43,
            "efdPgdas": 0,
            "inventario": 0
        },
        {
            "cnpj": "28429030000137",
            "cgf": 66796091,
            "razaoSocial": "A L S MENDES MOVEIS",
            "codRegime": 1,
            "regime": "NORMAL",
            "matriz": true,
            "situacao": "Ativo",
            "jangadas": 5,
            "status": null,
            "indicadores": 3,
            "divergencias": 8,
            "efdPgdas": 0,
            "inventario": 0
        }
    ],
    "totalElements": 327,
    "totalPages": 33,
    "pageSize": 10,
    "pageNumber": 4,
    "version": "v1"
}