{
    "data": [
        {
            "cnpj": "55353799000191",
            "cgf": 72112042,
            "razaoSocial": "IS COMERCIO, SERVICOS E PRODUCOES LTDA",
            "codRegime": 7,
            "regime": "MICROEMPRESA",
            "matriz": true,
            "situacao": "Ativo",
            "jangadas": null,
            "status": null,
            "indicadores": 0,
            "divergencias": 0,
            "efdPgdas": 0,
            "inventario": 0
        },
        {
            "cnpj": "54992741000125",
            "cgf": 71896856,
            "razaoSocial": "S e M COMERCIO DE VESTUARIOS LTDA",
            "codRegime": 7,
            "regime": "MICROEMPRESA",
            "matriz": true,
            "situacao": "Ativo",
            "jangadas": null,
            "status": null,
            "indicadores": 0,
            "divergencias": 0,
            "efdPgdas": 0,
            "inventario": 0
        },
        {
            "cnpj": "29159044000140",
            "cgf": 67423221,
            "razaoSocial": "DA TERRA INDUSTRIA DE PRODUTOS OPTICOS LTDA - EPP",
            "codRegime": 9,
            "regime": "EPP",
            "matriz": true,
            "situacao": "Ativo",
            "jangadas": null,
            "status": null,
            "indicadores": 0,
            "divergencias": 0,
            "efdPgdas": 0,
            "inventario": 0
        },
        {
            "cnpj": "64497678000104",
            "cgf": 73067342,
            "razaoSocial": "JULIANA FREITAS STUDIO LTDA",
            "codRegime": 7,
            "regime": "MICROEMPRESA",
            "matriz": true,
            "situacao": "Ativo",
            "jangadas": null,
            "status": null,
            "indicadores": 0,
            "divergencias": 0,
            "efdPgdas": 0,
            "inventario": 0
        },
        {
            "cnpj": "12981026000228",
            "cgf": 61682918,
            "razaoSocial": "MERCANTIL SUPER CUMBUCO LTDA",
            "codRegime": 1,
            "regime": "NORMAL",
            "matriz": false,
            "situacao": "Ativo",
            "jangadas": 4,
            "status": null,
            "indicadores": 0,
            "divergencias": 0,
            "efdPgdas": 0,
            "inventario": 0
        },
        {
            "cnpj": "65017267000137",
            "cgf": 73152269,
            "razaoSocial": "RETRO DANCING CLUB LTDA",
            "codRegime": 7,
            "regime": "MICROEMPRESA",
            "matriz": true,
            "situacao": "Ativo",
            "jangadas": null,
            "status": null,
            "indicadores": 0,
            "divergencias": 0,
            "efdPgdas": 0,
            "inventario": 0
        },
        {
            "cnpj": "08266225000104",
            "cgf": 62026968,
            "razaoSocial": "F R V COMERCIO DE ARTIGOS OPTICOS LTDA",
            "codRegime": 7,
            "regime": "MICROEMPRESA",
            "matriz": true,
            "situacao": "Ativo",
            "jangadas": null,
            "status": null,
            "indicadores": 0,
            "divergencias": 0,
            "efdPgdas": 0,
            "inventario": 0
        },
        {
            "cnpj": "65313195000175",
            "cgf": 73226491,
            "razaoSocial": "CASA FORTE MATERIAL DE CONSTRUCAO LTDA",
            "codRegime": 7,
            "regime": "MICROEMPRESA",
            "matriz": true,
            "situacao": "Ativo",
            "jangadas": null,
            "status": null,
            "indicadores": 0,
            "divergencias": 0,
            "efdPgdas": 0,
            "inventario": 0
        },
        {
            "cnpj": "08242533000191",
            "cgf": 64833950,
            "razaoSocial": "REALIZA CONSTRUCOES E SERVICOS LTDA",
            "codRegime": 7,
            "regime": "MICROEMPRESA",
            "matriz": true,
            "situacao": "Ativo",
            "jangadas": null,
            "status": null,
            "indicadores": 0,
            "divergencias": 0,
            "efdPgdas": 0,
            "inventario": 0
        },
        {
            "cnpj": "07873084000460",
            "cgf": 66114080,
            "razaoSocial": "A L B COMERCIO DE CALCADOS LTDA",
            "codRegime": 9,
            "regime": "EPP",
            "matriz": false,
            "situacao": "Ativo",
            "jangadas": null,
            "status": null,
            "indicadores": 0,
            "divergencias": 0,
            "efdPgdas": 0,
            "inventario": 0
        }
    ],
    "totalElements": 327,
    "totalPages": 33,
    "pageSize": 10,
    "pageNumber": 32,
    "version": "v1"
}