{
    "data": [
        {
            "cnpj": "08427279000104",
            "cgf": 62019139,
            "razaoSocial": "E V X COMERCIO DE ARTIGOS OPTICOS LTDA",
            "codRegime": 7,
            "regime": "MICROEMPRESA",
            "matriz": true,
            "situacao": "Ativo",
            "jangadas": null,
            "status": null,
            "indicadores": 1,
            "divergencias": 2,
            "efdPgdas": 0,
            "inventario": 0
        },
        {
            "cnpj": "05646748000937",
            "cgf": 63327260,
            "razaoSocial": "UCHOA COMERCIO DE GAS LTDA",
            "codRegime": 1,
            "regime": "NORMAL",
            "matriz": false,
            "situacao": "Baixado Pedido",
            "jangadas": null,
            "status": null,
            "indicadores": 1,
            "divergencias": 1,
            "efdPgdas": 0,
            "inventario": 1
        },
        {
            "cnpj": "13258237000542",
            "cgf": 70670609,
            "razaoSocial": "NIPAN MASSAS CONGELADAS LTDA - ME",
            "codRegime": 1,
            "regime": "NORMAL",
            "matriz": false,
            "situacao": "Baixado Pedido",
            "jangadas": null,
            "status": null,
            "indicadores": 1,
            "divergencias": 1,
            "efdPgdas": 0,
            "inventario": 0
        },
        {
            "cnpj": "41393030000192",
            "cgf": 61268119,
            "razaoSocial": "EMPACOTADORA DE ALIMENTOS VO MANNY LTDA",
            "codRegime": 1,
            "regime": "NORMAL",
            "matriz": true,
            "situacao": "Ativo",
            "jangadas": 5,
            "status": null,
            "indicadores": 1,
            "divergencias": 1,
            "efdPgdas": 1,
            "inventario": 0
        },
        {
            "cnpj": "42084015000125",
            "cgf": 61545694,
            "razaoSocial": "42.084.015 ROMARIO ALENCAR MENDONCA",
            "codRegime": 4,
            "regime": "MEI",
            "matriz": true,
            "situacao": "Ativo",
            "jangadas": null,
            "status": null,
            "indicadores": 1,
            "divergencias": 4,
            "efdPgdas": 0,
            "inventario": 0
        },
        {
            "cnpj": "37203431000165",
            "cgf": 62574639,
            "razaoSocial": "CAMILA RAMOS CRUZ LTDA",
            "codRegime": 1,
            "regime": "NORMAL",
            "matriz": true,
            "situacao": "Ativo",
            "jangadas": 5,
            "status": null,
            "indicadores": 1,
            "divergencias": 5,
            "efdPgdas": 0,
            "inventario": 0
        },
        {
            "cnpj": "33537132000106",
            "cgf": 69750289,
            "razaoSocial": "COOPERATIVA AGROECOLOGICA E DE SERVICOS SAO JOAO BATISTA",
            "codRegime": 1,
            "regime": "NORMAL",
            "matriz": true,
            "situacao": "Ativo",
            "jangadas": 4,
            "status": null,
            "indicadores": 1,
            "divergencias": 1,
            "efdPgdas": 1,
            "inventario": 0
        },
        {
            "cnpj": "13254185000102",
            "cgf": 60872993,
            "razaoSocial": "RVR TURISMO E EVENTOS LTDA ME",
            "codRegime": 7,
            "regime": "MICROEMPRESA",
            "matriz": true,
            "situacao": "Ativo",
            "jangadas": null,
            "status": null,
            "indicadores": 1,
            "divergencias": 3,
            "efdPgdas": 0,
            "inventario": 0
        },
        {
            "cnpj": "32262716000153",
            "cgf": 67923909,
            "razaoSocial": "C. M. DA COSTA ARTIGOS PARA BEBE",
            "codRegime": 7,
            "regime": "MICROEMPRESA",
            "matriz": true,
            "situacao": "Ativo",
            "jangadas": null,
            "status": null,
            "indicadores": 1,
            "divergencias": 2,
            "efdPgdas": 0,
            "inventario": 0
        },
        {
            "cnpj": "08198069000183",
            "cgf": 63692627,
            "razaoSocial": "D C MATERIAL DE CONSTRUCAO LTDA",
            "codRegime": 9,
            "regime": "EPP",
            "matriz": true,
            "situacao": "Ativo",
            "jangadas": null,
            "status": null,
            "indicadores": 1,
            "divergencias": 1,
            "efdPgdas": 0,
            "inventario": 0
        }
    ],
    "totalElements": 327,
    "totalPages": 33,
    "pageSize": 10,
    "pageNumber": 16,
    "version": "v1"
}