{
    "data": [
        {
            "cnpj": "33912498000118",
            "cgf": 69551715,
            "razaoSocial": "MASTER CAIXAS EMBALAGENS LTDA",
            "codRegime": 1,
            "regime": "NORMAL",
            "matriz": true,
            "situacao": "Ativo",
            "jangadas": 5,
            "status": null,
            "indicadores": 2,
            "divergencias": 7,
            "efdPgdas": 0,
            "inventario": 0
        },
        {
            "cnpj": "20951181000149",
            "cgf": 63483297,
            "razaoSocial": "ADE COMERCIO DE CALCADOS LTDA",
            "codRegime": 1,
            "regime": "NORMAL",
            "matriz": true,
            "situacao": "Ativo",
            "jangadas": 4,
            "status": null,
            "indicadores": 2,
            "divergencias": 29,
            "efdPgdas": 0,
            "inventario": 0
        },
        {
            "cnpj": "18631323000149",
            "cgf": 65240359,
            "razaoSocial": "PADARIA MAR E SOL LTDA",
            "codRegime": 1,
            "regime": "NORMAL",
            "matriz": true,
            "situacao": "Ativo",
            "jangadas": 5,
            "status": null,
            "indicadores": 2,
            "divergencias": 5,
            "efdPgdas": 0,
            "inventario": 0
        },
        {
            "cnpj": "37033193000197",
            "cgf": 62544381,
            "razaoSocial": "GADELHA ACESSORIOS TATICOS LTDA",
            "codRegime": 7,
            "regime": "MICROEMPRESA",
            "matriz": true,
            "situacao": "Ativo",
            "jangadas": null,
            "status": null,
            "indicadores": 2,
            "divergencias": 6,
            "efdPgdas": 0,
            "inventario": 0
        },
        {
            "cnpj": "20951181000491",
            "cgf": 67364829,
            "razaoSocial": "ADE COMERCIO DE CALCADOS LTDA",
            "codRegime": 1,
            "regime": "NORMAL",
            "matriz": false,
            "situacao": "Ativo",
            "jangadas": 4,
            "status": null,
            "indicadores": 2,
            "divergencias": 27,
            "efdPgdas": 0,
            "inventario": 0
        },
        {
            "cnpj": "05646748001151",
            "cgf": 64311066,
            "razaoSocial": "UCHOA COMERCIO DE GAS LTDA",
            "codRegime": 1,
            "regime": "NORMAL",
            "matriz": false,
            "situacao": "Ativo",
            "jangadas": 1,
            "status": null,
            "indicadores": 2,
            "divergencias": 10,
            "efdPgdas": 0,
            "inventario": 0
        },
        {
            "cnpj": "33384059000180",
            "cgf": 69359202,
            "razaoSocial": "J. L. E. DE OLIVEIRA SR PANDINHA",
            "codRegime": 7,
            "regime": "MICROEMPRESA",
            "matriz": true,
            "situacao": "Ativo",
            "jangadas": null,
            "status": null,
            "indicadores": 2,
            "divergencias": 6,
            "efdPgdas": 0,
            "inventario": 0
        },
        {
            "cnpj": "41326017000110",
            "cgf": 61308412,
            "razaoSocial": "MR DOCTORS LTDA",
            "codRegime": 7,
            "regime": "MICROEMPRESA",
            "matriz": true,
            "situacao": "Ativo",
            "jangadas": null,
            "status": null,
            "indicadores": 2,
            "divergencias": 2,
            "efdPgdas": 0,
            "inventario": 0
        },
        {
            "cnpj": "05646748000180",
            "cgf": 66793750,
            "razaoSocial": "UCHOA COMERCIO DE GAS LTDA",
            "codRegime": 1,
            "regime": "NORMAL",
            "matriz": true,
            "situacao": "Ativo",
            "jangadas": 1,
            "status": null,
            "indicadores": 2,
            "divergencias": 17,
            "efdPgdas": 0,
            "inventario": 0
        },
        {
            "cnpj": "15122739000143",
            "cgf": 65974123,
            "razaoSocial": "FORTVISION COMERCIO DE PRODUTOS OPTICOS LTDA",
            "codRegime": 7,
            "regime": "MICROEMPRESA",
            "matriz": true,
            "situacao": "Ativo",
            "jangadas": null,
            "status": null,
            "indicadores": 2,
            "divergencias": 5,
            "efdPgdas": 0,
            "inventario": 0
        }
    ],
    "totalElements": 327,
    "totalPages": 33,
    "pageSize": 10,
    "pageNumber": 7,
    "version": "v1"
}