{
    "data": [
        {
            "cnpj": "44520218000142",
            "cgf": 70346518,
            "razaoSocial": "ANTONIO MAURO DE SOUZA UCHOA LTDA",
            "codRegime": 7,
            "regime": "MICROEMPRESA",
            "matriz": true,
            "situacao": "Ativo",
            "jangadas": null,
            "status": null,
            "indicadores": 0,
            "divergencias": 0,
            "efdPgdas": 0,
            "inventario": 0
        },
        {
            "cnpj": "51014425000190",
            "cgf": 71368981,
            "razaoSocial": "NOVA EMPORIO MS LTDA - ME",
            "codRegime": 1,
            "regime": "NORMAL",
            "matriz": true,
            "situacao": "Ativo",
            "jangadas": 5,
            "status": null,
            "indicadores": 0,
            "divergencias": 0,
            "efdPgdas": 0,
            "inventario": 0
        },
        {
            "cnpj": "10448032000108",
            "cgf": 63791200,
            "razaoSocial": "AGUANAMBI SERVICOS PARA AUTOS LTDA",
            "codRegime": 9,
            "regime": "EPP",
            "matriz": true,
            "situacao": "Baixado Oficio",
            "jangadas": null,
            "status": null,
            "indicadores": 0,
            "divergencias": 0,
            "efdPgdas": 0,
            "inventario": 0
        },
        {
            "cnpj": "51170457000185",
            "cgf": 72022507,
            "razaoSocial": "C. D. SILVA OLIVEIRA - ME",
            "codRegime": 7,
            "regime": "MICROEMPRESA",
            "matriz": true,
            "situacao": "Baixado Pedido",
            "jangadas": null,
            "status": null,
            "indicadores": 0,
            "divergencias": 0,
            "efdPgdas": 0,
            "inventario": 0
        },
        {
            "cnpj": "10418062000171",
            "cgf": 63293145,
            "razaoSocial": "TA BONITO DISTRIBUIDORA DE FEIJAO VERDE LTDA",
            "codRegime": 6,
            "regime": "OUTROS",
            "matriz": true,
            "situacao": "Baixado Pedido",
            "jangadas": null,
            "status": null,
            "indicadores": 0,
            "divergencias": 0,
            "efdPgdas": 0,
            "inventario": 0
        },
        {
            "cnpj": "07373712000286",
            "cgf": 67433855,
            "razaoSocial": "S N K COMERCIO DE ARTIGOS OPTICOS LTDA ME",
            "codRegime": 7,
            "regime": "MICROEMPRESA",
            "matriz": false,
            "situacao": "Baixado Pedido",
            "jangadas": null,
            "status": null,
            "indicadores": 0,
            "divergencias": 0,
            "efdPgdas": 0,
            "inventario": 0
        },
        {
            "cnpj": "02174437000410",
            "cgf": 63053136,
            "razaoSocial": "PLANETA FERROVIA COM\u00c9RCIO DE PRODUTOS OPTICOS LTDA EPP",
            "codRegime": 9,
            "regime": "EPP",
            "matriz": false,
            "situacao": "Ativo",
            "jangadas": null,
            "status": null,
            "indicadores": 0,
            "divergencias": 0,
            "efdPgdas": 0,
            "inventario": 0
        },
        {
            "cnpj": "51803514000116",
            "cgf": 71478965,
            "razaoSocial": "BRUNO VEICULOS LTDA - ME",
            "codRegime": 1,
            "regime": "NORMAL",
            "matriz": true,
            "situacao": "Ativo",
            "jangadas": 4,
            "status": null,
            "indicadores": 0,
            "divergencias": 0,
            "efdPgdas": 0,
            "inventario": 0
        },
        {
            "cnpj": "44222302000180",
            "cgf": 70290130,
            "razaoSocial": "G M M NOGUEIRA COMERCIO VAREJISTA DE MATERIAIS DE CONSTRUCAO",
            "codRegime": 7,
            "regime": "MICROEMPRESA",
            "matriz": true,
            "situacao": "Ativo",
            "jangadas": null,
            "status": null,
            "indicadores": 0,
            "divergencias": 0,
            "efdPgdas": 0,
            "inventario": 0
        },
        {
            "cnpj": "43564705000144",
            "cgf": 71289640,
            "razaoSocial": "JOSE NILSON MAIA JUNIOR",
            "codRegime": 7,
            "regime": "MICROEMPRESA",
            "matriz": true,
            "situacao": "Ativo",
            "jangadas": null,
            "status": null,
            "indicadores": 0,
            "divergencias": 0,
            "efdPgdas": 0,
            "inventario": 0
        }
    ],
    "totalElements": 327,
    "totalPages": 33,
    "pageSize": 10,
    "pageNumber": 24,
    "version": "v1"
}