{
    "data": [
        {
            "cnpj": "23996720000154",
            "cgf": 64836096,
            "razaoSocial": "EUSEBIO VISION COMERCIO DE ARTIGOS OPTICOS LTDA ME",
            "codRegime": 7,
            "regime": "MICROEMPRESA",
            "matriz": true,
            "situacao": "Ativo",
            "jangadas": null,
            "status": null,
            "indicadores": 1,
            "divergencias": 1,
            "efdPgdas": 0,
            "inventario": 0
        },
        {
            "cnpj": "03175564000153",
            "cgf": 62811002,
            "razaoSocial": "F J MELO MATERIAL DE CONSTRUCAO LTDA",
            "codRegime": 1,
            "regime": "NORMAL",
            "matriz": true,
            "situacao": "Ativo",
            "jangadas": 4,
            "status": "Monitoramento",
            "indicadores": 1,
            "divergencias": 21,
            "efdPgdas": 0,
            "inventario": 0
        },
        {
            "cnpj": "23343540000254",
            "cgf": 64716899,
            "razaoSocial": "BRN COMERCIO DE CALCADOS LTDA",
            "codRegime": 1,
            "regime": "NORMAL",
            "matriz": false,
            "situacao": "Ativo",
            "jangadas": 4,
            "status": null,
            "indicadores": 1,
            "divergencias": 12,
            "efdPgdas": 0,
            "inventario": 0
        },
        {
            "cnpj": "28859335000189",
            "cgf": 67372856,
            "razaoSocial": "NORDESTE DISTRIBUIDORA DE GLP, AGUA E SERVICOS UNIPESSOAL LTDA",
            "codRegime": 6,
            "regime": "OUTROS",
            "matriz": true,
            "situacao": "Baixado Pedido",
            "jangadas": null,
            "status": null,
            "indicadores": 1,
            "divergencias": 1,
            "efdPgdas": 0,
            "inventario": 1
        },
        {
            "cnpj": "02174437000177",
            "cgf": 69954275,
            "razaoSocial": "PLANETA FERROVIA COM\u00c9RCIO DE PRODUTOS OPTICOS LTDA EPP",
            "codRegime": 9,
            "regime": "EPP",
            "matriz": true,
            "situacao": "Ativo",
            "jangadas": null,
            "status": null,
            "indicadores": 1,
            "divergencias": 2,
            "efdPgdas": 0,
            "inventario": 0
        },
        {
            "cnpj": "28941256000112",
            "cgf": 67384218,
            "razaoSocial": "LRX COM.DE EQUIP.DE COMBATE A INCENDIO E SEGURAN\u00c7A LTDA ME",
            "codRegime": 1,
            "regime": "NORMAL",
            "matriz": true,
            "situacao": "Ativo",
            "jangadas": 1,
            "status": null,
            "indicadores": 1,
            "divergencias": 1,
            "efdPgdas": 0,
            "inventario": 0
        },
        {
            "cnpj": "07302128000159",
            "cgf": 68381263,
            "razaoSocial": "FARMACIA SAMPAIO LTDA",
            "codRegime": 7,
            "regime": "MICROEMPRESA",
            "matriz": true,
            "situacao": "Ativo",
            "jangadas": null,
            "status": null,
            "indicadores": 1,
            "divergencias": 1,
            "efdPgdas": 0,
            "inventario": 0
        },
        {
            "cnpj": "39615700000126",
            "cgf": 62362402,
            "razaoSocial": "ANTONIA DAS GRACAS DA SILVA PAIXAO",
            "codRegime": 7,
            "regime": "MICROEMPRESA",
            "matriz": true,
            "situacao": "Ativo",
            "jangadas": null,
            "status": null,
            "indicadores": 1,
            "divergencias": 1,
            "efdPgdas": 0,
            "inventario": 0
        },
        {
            "cnpj": "10712266000110",
            "cgf": 63789450,
            "razaoSocial": "E & E COMERCIO DE ARTIGOS OPTICOS LTDA",
            "codRegime": 9,
            "regime": "EPP",
            "matriz": true,
            "situacao": "Ativo",
            "jangadas": null,
            "status": null,
            "indicadores": 1,
            "divergencias": 5,
            "efdPgdas": 0,
            "inventario": 0
        },
        {
            "cnpj": "22479806000147",
            "cgf": 64510816,
            "razaoSocial": "AH DE FREITAS COSTA ME",
            "codRegime": 7,
            "regime": "MICROEMPRESA",
            "matriz": true,
            "situacao": "Ativo",
            "jangadas": null,
            "status": null,
            "indicadores": 1,
            "divergencias": 1,
            "efdPgdas": 0,
            "inventario": 0
        }
    ],
    "totalElements": 327,
    "totalPages": 33,
    "pageSize": 10,
    "pageNumber": 13,
    "version": "v1"
}