{
    "data": [
        {
            "cnpj": "47241407000174",
            "cgf": 70771863,
            "razaoSocial": "DROGARIA FARMA CEZAR LTDA",
            "codRegime": 7,
            "regime": "MICROEMPRESA",
            "matriz": true,
            "situacao": "Ativo",
            "jangadas": null,
            "status": null,
            "indicadores": 0,
            "divergencias": 0,
            "efdPgdas": 0,
            "inventario": 0
        },
        {
            "cnpj": "47241407000255",
            "cgf": 72116153,
            "razaoSocial": "DROGARIA FARMA CEZAR LTDA",
            "codRegime": 7,
            "regime": "MICROEMPRESA",
            "matriz": false,
            "situacao": "Baixado Pedido",
            "jangadas": null,
            "status": null,
            "indicadores": 0,
            "divergencias": 0,
            "efdPgdas": 0,
            "inventario": 0
        },
        {
            "cnpj": "21687680000133",
            "cgf": 64432564,
            "razaoSocial": "MERCADINHO NAIARA XIMENES COMERCIAL LTDA",
            "codRegime": 7,
            "regime": "MICROEMPRESA",
            "matriz": true,
            "situacao": "Ativo",
            "jangadas": null,
            "status": null,
            "indicadores": 0,
            "divergencias": 0,
            "efdPgdas": 0,
            "inventario": 0
        },
        {
            "cnpj": "45413982000181",
            "cgf": 70477280,
            "razaoSocial": "A K G MORAES LTDA - ME",
            "codRegime": 9,
            "regime": "EPP",
            "matriz": true,
            "situacao": "Baixado Pedido",
            "jangadas": null,
            "status": null,
            "indicadores": 0,
            "divergencias": 0,
            "efdPgdas": 0,
            "inventario": 0
        },
        {
            "cnpj": "45283110000146",
            "cgf": 70457409,
            "razaoSocial": "ANNA B. H. CHAVES",
            "codRegime": 7,
            "regime": "MICROEMPRESA",
            "matriz": true,
            "situacao": "Ativo",
            "jangadas": null,
            "status": null,
            "indicadores": 0,
            "divergencias": 0,
            "efdPgdas": 0,
            "inventario": 0
        },
        {
            "cnpj": "44520218000142",
            "cgf": 70346518,
            "razaoSocial": "ANTONIO MAURO DE SOUZA UCHOA LTDA",
            "codRegime": 7,
            "regime": "MICROEMPRESA",
            "matriz": true,
            "situacao": "Ativo",
            "jangadas": null,
            "status": null,
            "indicadores": 0,
            "divergencias": 0,
            "efdPgdas": 0,
            "inventario": 0
        },
        {
            "cnpj": "10448032000108",
            "cgf": 63791200,
            "razaoSocial": "AGUANAMBI SERVICOS PARA AUTOS LTDA",
            "codRegime": 9,
            "regime": "EPP",
            "matriz": true,
            "situacao": "Baixado Oficio",
            "jangadas": null,
            "status": null,
            "indicadores": 0,
            "divergencias": 0,
            "efdPgdas": 0,
            "inventario": 0
        },
        {
            "cnpj": "10418062000171",
            "cgf": 63293145,
            "razaoSocial": "TA BONITO DISTRIBUIDORA DE FEIJAO VERDE LTDA",
            "codRegime": 6,
            "regime": "OUTROS",
            "matriz": true,
            "situacao": "Baixado Pedido",
            "jangadas": null,
            "status": null,
            "indicadores": 0,
            "divergencias": 0,
            "efdPgdas": 0,
            "inventario": 0
        },
        {
            "cnpj": "07373712000286",
            "cgf": 67433855,
            "razaoSocial": "S N K COMERCIO DE ARTIGOS OPTICOS LTDA ME",
            "codRegime": 7,
            "regime": "MICROEMPRESA",
            "matriz": false,
            "situacao": "Baixado Pedido",
            "jangadas": null,
            "status": null,
            "indicadores": 0,
            "divergencias": 0,
            "efdPgdas": 0,
            "inventario": 0
        },
        {
            "cnpj": "02174437000410",
            "cgf": 63053136,
            "razaoSocial": "PLANETA FERROVIA COM\u00c9RCIO DE PRODUTOS OPTICOS LTDA EPP",
            "codRegime": 9,
            "regime": "EPP",
            "matriz": false,
            "situacao": "Ativo",
            "jangadas": null,
            "status": null,
            "indicadores": 0,
            "divergencias": 0,
            "efdPgdas": 0,
            "inventario": 0
        }
    ],
    "totalElements": 327,
    "totalPages": 33,
    "pageSize": 10,
    "pageNumber": 23,
    "version": "v1"
}