{
    "data": [
        {
            "cnpj": "31414257000113",
            "cgf": 71375651,
            "razaoSocial": "PALUTEC REFORMAS & SERVICOS LTDA",
            "codRegime": 7,
            "regime": "MICROEMPRESA",
            "matriz": true,
            "situacao": "Ativo",
            "jangadas": null,
            "status": null,
            "indicadores": 0,
            "divergencias": 0,
            "efdPgdas": 0,
            "inventario": 0
        },
        {
            "cnpj": "55973695000180",
            "cgf": 72024607,
            "razaoSocial": "METALURGICA SANTA MARIA LTDA",
            "codRegime": 7,
            "regime": "MICROEMPRESA",
            "matriz": true,
            "situacao": "Ativo",
            "jangadas": null,
            "status": null,
            "indicadores": 0,
            "divergencias": 0,
            "efdPgdas": 0,
            "inventario": 0
        },
        {
            "cnpj": "31296366000183",
            "cgf": 63451387,
            "razaoSocial": "F M BEVILAQUA ARTE E CULTURA",
            "codRegime": 7,
            "regime": "MICROEMPRESA",
            "matriz": true,
            "situacao": "Ativo",
            "jangadas": null,
            "status": null,
            "indicadores": 0,
            "divergencias": 0,
            "efdPgdas": 0,
            "inventario": 0
        },
        {
            "cnpj": "55982633000134",
            "cgf": 72037253,
            "razaoSocial": "A. E. DA SILVA NETO MANUTENCOES - ME",
            "codRegime": 7,
            "regime": "MICROEMPRESA",
            "matriz": true,
            "situacao": "Ativo",
            "jangadas": null,
            "status": null,
            "indicadores": 0,
            "divergencias": 0,
            "efdPgdas": 0,
            "inventario": 0
        },
        {
            "cnpj": "31037960000150",
            "cgf": 67721044,
            "razaoSocial": "FM REPRESENTACOES E CONSULTORIA LTDA",
            "codRegime": 6,
            "regime": "OUTROS",
            "matriz": true,
            "situacao": "Baixado Pedido",
            "jangadas": null,
            "status": null,
            "indicadores": 0,
            "divergencias": 0,
            "efdPgdas": 0,
            "inventario": 0
        },
        {
            "cnpj": "55365194000110",
            "cgf": 71947361,
            "razaoSocial": "KAPILER, INDUSTRIA E COMERCIO LTDA",
            "codRegime": 7,
            "regime": "MICROEMPRESA",
            "matriz": true,
            "situacao": "Ativo",
            "jangadas": null,
            "status": null,
            "indicadores": 0,
            "divergencias": 0,
            "efdPgdas": 0,
            "inventario": 0
        },
        {
            "cnpj": "55353799000191",
            "cgf": 72112042,
            "razaoSocial": "IS COMERCIO, SERVICOS E PRODUCOES LTDA",
            "codRegime": 7,
            "regime": "MICROEMPRESA",
            "matriz": true,
            "situacao": "Ativo",
            "jangadas": null,
            "status": null,
            "indicadores": 0,
            "divergencias": 0,
            "efdPgdas": 0,
            "inventario": 0
        },
        {
            "cnpj": "54992741000125",
            "cgf": 71896856,
            "razaoSocial": "S e M COMERCIO DE VESTUARIOS LTDA",
            "codRegime": 7,
            "regime": "MICROEMPRESA",
            "matriz": true,
            "situacao": "Ativo",
            "jangadas": null,
            "status": null,
            "indicadores": 0,
            "divergencias": 0,
            "efdPgdas": 0,
            "inventario": 0
        },
        {
            "cnpj": "29159044000140",
            "cgf": 67423221,
            "razaoSocial": "DA TERRA INDUSTRIA DE PRODUTOS OPTICOS LTDA - EPP",
            "codRegime": 9,
            "regime": "EPP",
            "matriz": true,
            "situacao": "Ativo",
            "jangadas": null,
            "status": null,
            "indicadores": 0,
            "divergencias": 0,
            "efdPgdas": 0,
            "inventario": 0
        },
        {
            "cnpj": "12981026000228",
            "cgf": 61682918,
            "razaoSocial": "MERCANTIL SUPER CUMBUCO LTDA",
            "codRegime": 1,
            "regime": "NORMAL",
            "matriz": false,
            "situacao": "Ativo",
            "jangadas": 4,
            "status": null,
            "indicadores": 0,
            "divergencias": 0,
            "efdPgdas": 0,
            "inventario": 0
        }
    ],
    "totalElements": 327,
    "totalPages": 33,
    "pageSize": 10,
    "pageNumber": 31,
    "version": "v1"
}