{
    "data": [
        {
            "cnpj": "32084111000110",
            "cgf": 67915841,
            "razaoSocial": "OCULART OTICA LTDA",
            "codRegime": 9,
            "regime": "EPP",
            "matriz": true,
            "situacao": "Ativo",
            "jangadas": null,
            "status": null,
            "indicadores": 2,
            "divergencias": 189,
            "efdPgdas": 0,
            "inventario": 0
        },
        {
            "cnpj": "37203431000165",
            "cgf": 62574639,
            "razaoSocial": "CAMILA RAMOS CRUZ LTDA",
            "codRegime": 1,
            "regime": "NORMAL",
            "matriz": true,
            "situacao": "Ativo",
            "jangadas": 5,
            "status": null,
            "indicadores": 1,
            "divergencias": 5,
            "efdPgdas": 0,
            "inventario": 0
        },
        {
            "cnpj": "00091966000181",
            "cgf": 69216509,
            "razaoSocial": "DOMANI INTERMEDIACOES LTDA",
            "codRegime": 9,
            "regime": "EPP",
            "matriz": true,
            "situacao": "Baixado Oficio",
            "jangadas": null,
            "status": null,
            "indicadores": 1,
            "divergencias": 13,
            "efdPgdas": 0,
            "inventario": 0
        },
        {
            "cnpj": "11618173000356",
            "cgf": 66066301,
            "razaoSocial": "RMG-CE COMERCIO DE CALCADOS LTDA",
            "codRegime": 1,
            "regime": "NORMAL",
            "matriz": false,
            "situacao": "Baixado Pedido",
            "jangadas": null,
            "status": null,
            "indicadores": 1,
            "divergencias": 1,
            "efdPgdas": 0,
            "inventario": 1
        },
        {
            "cnpj": "36756409000180",
            "cgf": 62459171,
            "razaoSocial": "IVAELCELULARES LTDA",
            "codRegime": 7,
            "regime": "MICROEMPRESA",
            "matriz": true,
            "situacao": "Ativo",
            "jangadas": null,
            "status": null,
            "indicadores": 1,
            "divergencias": 2,
            "efdPgdas": 0,
            "inventario": 0
        },
        {
            "cnpj": "03175564000234",
            "cgf": 72733063,
            "razaoSocial": "F J MELO MATERIAL DE CONSTRUCAO LTDA",
            "codRegime": 1,
            "regime": "NORMAL",
            "matriz": false,
            "situacao": "Ativo",
            "jangadas": 4,
            "status": null,
            "indicadores": 1,
            "divergencias": 1,
            "efdPgdas": 0,
            "inventario": 0
        },
        {
            "cnpj": "11075280000113",
            "cgf": 61907332,
            "razaoSocial": "FRANCISCO XAVIER NETO ME",
            "codRegime": 1,
            "regime": "NORMAL",
            "matriz": true,
            "situacao": "Ativo",
            "jangadas": 1,
            "status": null,
            "indicadores": 1,
            "divergencias": 13,
            "efdPgdas": 0,
            "inventario": 0
        },
        {
            "cnpj": "36405115000103",
            "cgf": 62309021,
            "razaoSocial": "PET & GROOMER LTDA",
            "codRegime": 7,
            "regime": "MICROEMPRESA",
            "matriz": true,
            "situacao": "Ativo",
            "jangadas": null,
            "status": null,
            "indicadores": 1,
            "divergencias": 3,
            "efdPgdas": 0,
            "inventario": 0
        },
        {
            "cnpj": "36965599000145",
            "cgf": 62570790,
            "razaoSocial": "SHIRLLEY MARA BESSA PEREIRA - ME",
            "codRegime": 7,
            "regime": "MICROEMPRESA",
            "matriz": true,
            "situacao": "Ativo",
            "jangadas": null,
            "status": null,
            "indicadores": 1,
            "divergencias": 1,
            "efdPgdas": 0,
            "inventario": 0
        },
        {
            "cnpj": "23996720000154",
            "cgf": 64836096,
            "razaoSocial": "EUSEBIO VISION COMERCIO DE ARTIGOS OPTICOS LTDA ME",
            "codRegime": 7,
            "regime": "MICROEMPRESA",
            "matriz": true,
            "situacao": "Ativo",
            "jangadas": null,
            "status": null,
            "indicadores": 1,
            "divergencias": 1,
            "efdPgdas": 0,
            "inventario": 0
        }
    ],
    "totalElements": 327,
    "totalPages": 33,
    "pageSize": 10,
    "pageNumber": 11,
    "version": "v1"
}