{
    "data": [
        {
            "cnpj": "10863681000175",
            "cgf": 64123910,
            "razaoSocial": "O C M MACHADO NETO LTDA",
            "codRegime": 7,
            "regime": "MICROEMPRESA",
            "matriz": true,
            "situacao": "Ativo",
            "jangadas": null,
            "status": null,
            "indicadores": 0,
            "divergencias": 0,
            "efdPgdas": 0,
            "inventario": 0
        },
        {
            "cnpj": "10793168000155",
            "cgf": 64073351,
            "razaoSocial": "ABC DOS EXTINTORES COM\u00c9RCIO E MANUTEN\u00c7\u00c3O DE MATERIAIS CONTRA",
            "codRegime": 7,
            "regime": "MICROEMPRESA",
            "matriz": true,
            "situacao": "Ativo",
            "jangadas": null,
            "status": null,
            "indicadores": 0,
            "divergencias": 0,
            "efdPgdas": 0,
            "inventario": 0
        },
        {
            "cnpj": "48465634000146",
            "cgf": 70971650,
            "razaoSocial": "CARIOCA VARIEDADES LTDA - ME",
            "codRegime": 7,
            "regime": "MICROEMPRESA",
            "matriz": true,
            "situacao": "Ativo",
            "jangadas": null,
            "status": null,
            "indicadores": 0,
            "divergencias": 0,
            "efdPgdas": 0,
            "inventario": 0
        },
        {
            "cnpj": "48198686000101",
            "cgf": 71519416,
            "razaoSocial": "C M COMERCIO E VESTUARIO LTDA",
            "codRegime": 1,
            "regime": "NORMAL",
            "matriz": true,
            "situacao": "Ativo",
            "jangadas": 5,
            "status": null,
            "indicadores": 0,
            "divergencias": 0,
            "efdPgdas": 0,
            "inventario": 0
        },
        {
            "cnpj": "22627192000101",
            "cgf": 64569748,
            "razaoSocial": "BARAO VISION COMERCIO DE ARTIGOS OPTICOS LTDA ME",
            "codRegime": 7,
            "regime": "MICROEMPRESA",
            "matriz": true,
            "situacao": "Ativo",
            "jangadas": null,
            "status": null,
            "indicadores": 0,
            "divergencias": 0,
            "efdPgdas": 0,
            "inventario": 0
        },
        {
            "cnpj": "48098490000137",
            "cgf": 70892105,
            "razaoSocial": "IGOR ROCHA GADELHA LTDA",
            "codRegime": 7,
            "regime": "MICROEMPRESA",
            "matriz": true,
            "situacao": "Ativo",
            "jangadas": null,
            "status": null,
            "indicadores": 0,
            "divergencias": 0,
            "efdPgdas": 0,
            "inventario": 0
        },
        {
            "cnpj": "21961710000158",
            "cgf": 66380944,
            "razaoSocial": "COLEGIO SONHO MEU LTDA",
            "codRegime": 6,
            "regime": "OUTROS",
            "matriz": true,
            "situacao": "Baixado Pedido",
            "jangadas": null,
            "status": null,
            "indicadores": 0,
            "divergencias": 0,
            "efdPgdas": 0,
            "inventario": 0
        },
        {
            "cnpj": "10712266000200",
            "cgf": 65080378,
            "razaoSocial": "E & E COMERCIO DE ARTIGOS OPTICOS LTDA",
            "codRegime": 7,
            "regime": "MICROEMPRESA",
            "matriz": false,
            "situacao": "Baixado Pedido",
            "jangadas": null,
            "status": null,
            "indicadores": 0,
            "divergencias": 0,
            "efdPgdas": 0,
            "inventario": 0
        },
        {
            "cnpj": "47241407000174",
            "cgf": 70771863,
            "razaoSocial": "DROGARIA FARMA CEZAR LTDA",
            "codRegime": 7,
            "regime": "MICROEMPRESA",
            "matriz": true,
            "situacao": "Ativo",
            "jangadas": null,
            "status": null,
            "indicadores": 0,
            "divergencias": 0,
            "efdPgdas": 0,
            "inventario": 0
        },
        {
            "cnpj": "47241407000255",
            "cgf": 72116153,
            "razaoSocial": "DROGARIA FARMA CEZAR LTDA",
            "codRegime": 7,
            "regime": "MICROEMPRESA",
            "matriz": false,
            "situacao": "Baixado Pedido",
            "jangadas": null,
            "status": null,
            "indicadores": 0,
            "divergencias": 0,
            "efdPgdas": 0,
            "inventario": 0
        }
    ],
    "totalElements": 327,
    "totalPages": 33,
    "pageSize": 10,
    "pageNumber": 22,
    "version": "v1"
}