{
    "data": [
        {
            "cnpj": "33912498000118",
            "cgf": 69551715,
            "razaoSocial": "MASTER CAIXAS EMBALAGENS LTDA",
            "codRegime": 1,
            "regime": "NORMAL",
            "matriz": true,
            "situacao": "Ativo",
            "jangadas": 5,
            "status": null,
            "indicadores": 2,
            "divergencias": 7,
            "efdPgdas": 0,
            "inventario": 0
        },
        {
            "cnpj": "10968080000208",
            "cgf": 65042018,
            "razaoSocial": "A & S COMERCIO DE ARTIGOS OPTICOS LTDA ME",
            "codRegime": 9,
            "regime": "EPP",
            "matriz": false,
            "situacao": "Ativo",
            "jangadas": null,
            "status": null,
            "indicadores": 2,
            "divergencias": 4,
            "efdPgdas": 0,
            "inventario": 0
        },
        {
            "cnpj": "10968080000127",
            "cgf": 63818426,
            "razaoSocial": "A & S COMERCIO DE ARTIGOS OPTICOS LTDA ME",
            "codRegime": 9,
            "regime": "EPP",
            "matriz": true,
            "situacao": "Ativo",
            "jangadas": null,
            "status": null,
            "indicadores": 2,
            "divergencias": 5,
            "efdPgdas": 0,
            "inventario": 0
        },
        {
            "cnpj": "14953224000122",
            "cgf": 65898940,
            "razaoSocial": "F J XIMENES DISTRIBUIDORA DE BEBIDAS LTDA",
            "codRegime": 1,
            "regime": "NORMAL",
            "matriz": true,
            "situacao": "Baixado Pedido",
            "jangadas": 2,
            "status": null,
            "indicadores": 2,
            "divergencias": 7,
            "efdPgdas": 0,
            "inventario": 0
        },
        {
            "cnpj": "13258237000461",
            "cgf": 70638306,
            "razaoSocial": "NIPAN MASSAS CONGELADAS LTDA - ME",
            "codRegime": 1,
            "regime": "NORMAL",
            "matriz": false,
            "situacao": "Baixado Pedido",
            "jangadas": null,
            "status": null,
            "indicadores": 2,
            "divergencias": 18,
            "efdPgdas": 0,
            "inventario": 0
        },
        {
            "cnpj": "26288252000151",
            "cgf": 65467892,
            "razaoSocial": "N A DE SOUZA PADARIA ME",
            "codRegime": 6,
            "regime": "OUTROS",
            "matriz": true,
            "situacao": "Baixado Pedido",
            "jangadas": null,
            "status": null,
            "indicadores": 2,
            "divergencias": 2,
            "efdPgdas": 0,
            "inventario": 0
        },
        {
            "cnpj": "30210986000195",
            "cgf": 67576915,
            "razaoSocial": "FRANCISCO DAS CHAGAS PINHEIRO GOMES",
            "codRegime": 7,
            "regime": "MICROEMPRESA",
            "matriz": true,
            "situacao": "Ativo",
            "jangadas": null,
            "status": null,
            "indicadores": 2,
            "divergencias": 3,
            "efdPgdas": 0,
            "inventario": 0
        },
        {
            "cnpj": "22850504000133",
            "cgf": 64710580,
            "razaoSocial": "CARIRI COM\u00c9RCIO DE ARTIGOS OPTICOS LTDA. - ME",
            "codRegime": 9,
            "regime": "EPP",
            "matriz": true,
            "situacao": "Ativo",
            "jangadas": null,
            "status": null,
            "indicadores": 2,
            "divergencias": 6,
            "efdPgdas": 0,
            "inventario": 0
        },
        {
            "cnpj": "11618173000437",
            "cgf": 65255577,
            "razaoSocial": "RMG-CE COMERCIO DE CALCADOS LTDA",
            "codRegime": 1,
            "regime": "NORMAL",
            "matriz": false,
            "situacao": "Ativo",
            "jangadas": 3,
            "status": null,
            "indicadores": 2,
            "divergencias": 11,
            "efdPgdas": 0,
            "inventario": 0
        },
        {
            "cnpj": "05646748001151",
            "cgf": 64311066,
            "razaoSocial": "UCHOA COMERCIO DE GAS LTDA",
            "codRegime": 1,
            "regime": "NORMAL",
            "matriz": false,
            "situacao": "Ativo",
            "jangadas": 1,
            "status": null,
            "indicadores": 2,
            "divergencias": 10,
            "efdPgdas": 0,
            "inventario": 0
        }
    ],
    "totalElements": 327,
    "totalPages": 33,
    "pageSize": 10,
    "pageNumber": 6,
    "version": "v1"
}