{
    "data": [
        {
            "cnpj": "31367585000106",
            "cgf": 67773249,
            "razaoSocial": "RACHEL DA SILVEIRA VIEIRA RODRIGUES",
            "codRegime": 7,
            "regime": "MICROEMPRESA",
            "matriz": true,
            "situacao": "Ativo",
            "jangadas": null,
            "status": null,
            "indicadores": 3,
            "divergencias": 35,
            "efdPgdas": 24,
            "inventario": 2
        },
        {
            "cnpj": "00973755000172",
            "cgf": 69570612,
            "razaoSocial": "COMERCIAL ESTIVAS DE ALIMENTOS LTDA",
            "codRegime": 1,
            "regime": "NORMAL",
            "matriz": true,
            "situacao": "Baixado Oficio",
            "jangadas": null,
            "status": null,
            "indicadores": 3,
            "divergencias": 43,
            "efdPgdas": 0,
            "inventario": 0
        },
        {
            "cnpj": "31649378000144",
            "cgf": 67824080,
            "razaoSocial": "NARCICIO A MENDES",
            "codRegime": 1,
            "regime": "NORMAL",
            "matriz": true,
            "situacao": "Ativo",
            "jangadas": 2,
            "status": null,
            "indicadores": 3,
            "divergencias": 21,
            "efdPgdas": 3,
            "inventario": 0
        },
        {
            "cnpj": "37006453000135",
            "cgf": 62539051,
            "razaoSocial": "J G M RIBEIRO",
            "codRegime": 1,
            "regime": "NORMAL",
            "matriz": true,
            "situacao": "Ativo",
            "jangadas": 4,
            "status": null,
            "indicadores": 3,
            "divergencias": 55,
            "efdPgdas": 0,
            "inventario": 0
        },
        {
            "cnpj": "57069753000170",
            "cgf": 72119101,
            "razaoSocial": "COMERCIAL DE ALIMENTOS DUDA MIX LTDA",
            "codRegime": 1,
            "regime": "NORMAL",
            "matriz": true,
            "situacao": "Ativo",
            "jangadas": 4,
            "status": null,
            "indicadores": 3,
            "divergencias": 4,
            "efdPgdas": 0,
            "inventario": 0
        },
        {
            "cnpj": "13258237000380",
            "cgf": 70556857,
            "razaoSocial": "NIPAN MASSAS CONGELADAS LTDA - ME",
            "codRegime": 1,
            "regime": "NORMAL",
            "matriz": false,
            "situacao": "Baixado Pedido",
            "jangadas": null,
            "status": null,
            "indicadores": 2,
            "divergencias": 6,
            "efdPgdas": 0,
            "inventario": 0
        },
        {
            "cnpj": "22850504000133",
            "cgf": 64710580,
            "razaoSocial": "CARIRI COM\u00c9RCIO DE ARTIGOS OPTICOS LTDA. - ME",
            "codRegime": 9,
            "regime": "EPP",
            "matriz": true,
            "situacao": "Ativo",
            "jangadas": null,
            "status": null,
            "indicadores": 2,
            "divergencias": 6,
            "efdPgdas": 0,
            "inventario": 0
        },
        {
            "cnpj": "21196487000108",
            "cgf": 64325555,
            "razaoSocial": "COOPERATIVA AGROPECUARIA E DE SERVICOS NOSSA SENHORA APARECI",
            "codRegime": 1,
            "regime": "NORMAL",
            "matriz": true,
            "situacao": "Ativo",
            "jangadas": 4,
            "status": null,
            "indicadores": 2,
            "divergencias": 5,
            "efdPgdas": 0,
            "inventario": 0
        },
        {
            "cnpj": "22749300000100",
            "cgf": 64570711,
            "razaoSocial": "HIDRAULICA CEARENSE SERVICO E MANUTENCAO LTDA",
            "codRegime": 1,
            "regime": "NORMAL",
            "matriz": true,
            "situacao": "Ativo",
            "jangadas": 4,
            "status": null,
            "indicadores": 2,
            "divergencias": 17,
            "efdPgdas": 0,
            "inventario": 0
        },
        {
            "cnpj": "20951181000653",
            "cgf": 70543763,
            "razaoSocial": "ADE COMERCIO DE CALCADOS LTDA",
            "codRegime": 1,
            "regime": "NORMAL",
            "matriz": false,
            "situacao": "Ativo",
            "jangadas": 4,
            "status": null,
            "indicadores": 2,
            "divergencias": 23,
            "efdPgdas": 0,
            "inventario": 0
        }
    ],
    "totalElements": 327,
    "totalPages": 33,
    "pageSize": 10,
    "pageNumber": 5,
    "version": "v1"
}