{
    "data": [
        {
            "cnpj": "13254185000102",
            "cgf": 60872993,
            "razaoSocial": "RVR TURISMO E EVENTOS LTDA ME",
            "codRegime": 7,
            "regime": "MICROEMPRESA",
            "matriz": true,
            "situacao": "Ativo",
            "jangadas": null,
            "status": null,
            "indicadores": 1,
            "divergencias": 3,
            "efdPgdas": 0,
            "inventario": 0
        },
        {
            "cnpj": "32262716000153",
            "cgf": 67923909,
            "razaoSocial": "C. M. DA COSTA ARTIGOS PARA BEBE",
            "codRegime": 7,
            "regime": "MICROEMPRESA",
            "matriz": true,
            "situacao": "Ativo",
            "jangadas": null,
            "status": null,
            "indicadores": 1,
            "divergencias": 2,
            "efdPgdas": 0,
            "inventario": 0
        },
        {
            "cnpj": "08198069000183",
            "cgf": 63692627,
            "razaoSocial": "D C MATERIAL DE CONSTRUCAO LTDA",
            "codRegime": 9,
            "regime": "EPP",
            "matriz": true,
            "situacao": "Ativo",
            "jangadas": null,
            "status": null,
            "indicadores": 1,
            "divergencias": 1,
            "efdPgdas": 0,
            "inventario": 0
        },
        {
            "cnpj": "42084015000125",
            "cgf": 61545694,
            "razaoSocial": "42.084.015 ROMARIO ALENCAR MENDONCA",
            "codRegime": 4,
            "regime": "MEI",
            "matriz": true,
            "situacao": "Ativo",
            "jangadas": null,
            "status": null,
            "indicadores": 1,
            "divergencias": 4,
            "efdPgdas": 0,
            "inventario": 0
        },
        {
            "cnpj": "13258237000208",
            "cgf": 70478554,
            "razaoSocial": "NIPAN MASSAS CONGELADAS LTDA - ME - EPP",
            "codRegime": 1,
            "regime": "NORMAL",
            "matriz": false,
            "situacao": "Baixado Pedido",
            "jangadas": null,
            "status": null,
            "indicadores": 1,
            "divergencias": 1,
            "efdPgdas": 0,
            "inventario": 0
        },
        {
            "cnpj": "05646748000694",
            "cgf": 63995603,
            "razaoSocial": "UCHOA COMERCIO DE GAS LTDA",
            "codRegime": 1,
            "regime": "NORMAL",
            "matriz": false,
            "situacao": "Ativo",
            "jangadas": 1,
            "status": null,
            "indicadores": 1,
            "divergencias": 8,
            "efdPgdas": 0,
            "inventario": 0
        },
        {
            "cnpj": "44195954000172",
            "cgf": 70296995,
            "razaoSocial": "JAV AMBIENTACOES, FABRICACAO E COMERCIO LTDA",
            "codRegime": 9,
            "regime": "EPP",
            "matriz": true,
            "situacao": "Ativo",
            "jangadas": null,
            "status": null,
            "indicadores": 1,
            "divergencias": 6,
            "efdPgdas": 0,
            "inventario": 0
        },
        {
            "cnpj": "45095779000104",
            "cgf": 70434492,
            "razaoSocial": "TOSHIBA GOURMET RESTAURANTE LTDA",
            "codRegime": 7,
            "regime": "MICROEMPRESA",
            "matriz": true,
            "situacao": "Ativo",
            "jangadas": null,
            "status": null,
            "indicadores": 1,
            "divergencias": 1,
            "efdPgdas": 0,
            "inventario": 0
        },
        {
            "cnpj": "05646748000856",
            "cgf": 66050090,
            "razaoSocial": "UCHOA COMERCIO DE GAS LTDA",
            "codRegime": 1,
            "regime": "NORMAL",
            "matriz": false,
            "situacao": "Ativo",
            "jangadas": 1,
            "status": null,
            "indicadores": 1,
            "divergencias": 3,
            "efdPgdas": 0,
            "inventario": 0
        },
        {
            "cnpj": "43148601000159",
            "cgf": 70107130,
            "razaoSocial": "MOVELARIA CANTO DOS MOVEIS LTDA",
            "codRegime": 7,
            "regime": "MICROEMPRESA",
            "matriz": true,
            "situacao": "Ativo",
            "jangadas": null,
            "status": null,
            "indicadores": 1,
            "divergencias": 4,
            "efdPgdas": 0,
            "inventario": 0
        }
    ],
    "totalElements": 327,
    "totalPages": 33,
    "pageSize": 10,
    "pageNumber": 18,
    "version": "v1"
}