{
    "data": [
        {
            "cnpj": "09156818000172",
            "cgf": 62162969,
            "razaoSocial": "MAGILA HELLEN PEREIRA ME",
            "codRegime": 1,
            "regime": "NORMAL",
            "matriz": true,
            "situacao": "Ativo",
            "jangadas": 4,
            "status": "Monitoramento",
            "indicadores": 2,
            "divergencias": 24,
            "efdPgdas": 0,
            "inventario": 0
        },
        {
            "cnpj": "36181497000139",
            "cgf": 62097849,
            "razaoSocial": "ESTALEIRO BEBIDAS LTDA",
            "codRegime": 1,
            "regime": "NORMAL",
            "matriz": true,
            "situacao": "Ativo",
            "jangadas": 4,
            "status": null,
            "indicadores": 2,
            "divergencias": 13,
            "efdPgdas": 0,
            "inventario": 0
        },
        {
            "cnpj": "05646748000422",
            "cgf": 63641682,
            "razaoSocial": "UCHOA COMERCIO DE GAS LTDA",
            "codRegime": 1,
            "regime": "NORMAL",
            "matriz": false,
            "situacao": "Ativo",
            "jangadas": 1,
            "status": null,
            "indicadores": 2,
            "divergencias": 9,
            "efdPgdas": 0,
            "inventario": 0
        },
        {
            "cnpj": "20373830000171",
            "cgf": 63350661,
            "razaoSocial": "OBA FESTAS LTDA",
            "codRegime": 1,
            "regime": "NORMAL",
            "matriz": true,
            "situacao": "Ativo",
            "jangadas": 5,
            "status": null,
            "indicadores": 2,
            "divergencias": 6,
            "efdPgdas": 0,
            "inventario": 0
        },
        {
            "cnpj": "37033193000197",
            "cgf": 62544381,
            "razaoSocial": "GADELHA ACESSORIOS TATICOS LTDA",
            "codRegime": 7,
            "regime": "MICROEMPRESA",
            "matriz": true,
            "situacao": "Ativo",
            "jangadas": null,
            "status": null,
            "indicadores": 2,
            "divergencias": 6,
            "efdPgdas": 0,
            "inventario": 0
        },
        {
            "cnpj": "38295532000176",
            "cgf": 71481320,
            "razaoSocial": "STRONG ENERGY LTDA - ME",
            "codRegime": 1,
            "regime": "NORMAL",
            "matriz": true,
            "situacao": "Ativo",
            "jangadas": 5,
            "status": null,
            "indicadores": 2,
            "divergencias": 2,
            "efdPgdas": 0,
            "inventario": 0
        },
        {
            "cnpj": "18631323000149",
            "cgf": 65240359,
            "razaoSocial": "PADARIA MAR E SOL LTDA",
            "codRegime": 1,
            "regime": "NORMAL",
            "matriz": true,
            "situacao": "Ativo",
            "jangadas": 5,
            "status": null,
            "indicadores": 2,
            "divergencias": 5,
            "efdPgdas": 0,
            "inventario": 0
        },
        {
            "cnpj": "15122739000143",
            "cgf": 65974123,
            "razaoSocial": "FORTVISION COMERCIO DE PRODUTOS OPTICOS LTDA",
            "codRegime": 7,
            "regime": "MICROEMPRESA",
            "matriz": true,
            "situacao": "Ativo",
            "jangadas": null,
            "status": null,
            "indicadores": 2,
            "divergencias": 5,
            "efdPgdas": 0,
            "inventario": 0
        },
        {
            "cnpj": "05646748000341",
            "cgf": 63584646,
            "razaoSocial": "UCHOA COMERCIO DE GAS LTDA",
            "codRegime": 1,
            "regime": "NORMAL",
            "matriz": false,
            "situacao": "Ativo",
            "jangadas": 1,
            "status": null,
            "indicadores": 2,
            "divergencias": 11,
            "efdPgdas": 0,
            "inventario": 0
        },
        {
            "cnpj": "33384059000180",
            "cgf": 69359202,
            "razaoSocial": "J. L. E. DE OLIVEIRA SR PANDINHA",
            "codRegime": 7,
            "regime": "MICROEMPRESA",
            "matriz": true,
            "situacao": "Ativo",
            "jangadas": null,
            "status": null,
            "indicadores": 2,
            "divergencias": 6,
            "efdPgdas": 0,
            "inventario": 0
        }
    ],
    "totalElements": 327,
    "totalPages": 33,
    "pageSize": 10,
    "pageNumber": 8,
    "version": "v1"
}