{
    "data": [
        {
            "cnpj": "40625724000145",
            "cgf": 62450875,
            "razaoSocial": "ZITRONE CAR CARE COMERCIO DE EQUIPAMENTOS E PRODUTOS AUTOMOT",
            "codRegime": 7,
            "regime": "MICROEMPRESA",
            "matriz": true,
            "situacao": "Ativo",
            "jangadas": null,
            "status": null,
            "indicadores": 2,
            "divergencias": 4,
            "efdPgdas": 0,
            "inventario": 0
        },
        {
            "cnpj": "41326017000110",
            "cgf": 61308412,
            "razaoSocial": "MR DOCTORS LTDA",
            "codRegime": 7,
            "regime": "MICROEMPRESA",
            "matriz": true,
            "situacao": "Ativo",
            "jangadas": null,
            "status": null,
            "indicadores": 2,
            "divergencias": 2,
            "efdPgdas": 0,
            "inventario": 0
        },
        {
            "cnpj": "37033193000197",
            "cgf": 62544381,
            "razaoSocial": "GADELHA ACESSORIOS TATICOS LTDA",
            "codRegime": 7,
            "regime": "MICROEMPRESA",
            "matriz": true,
            "situacao": "Ativo",
            "jangadas": null,
            "status": null,
            "indicadores": 2,
            "divergencias": 6,
            "efdPgdas": 0,
            "inventario": 0
        },
        {
            "cnpj": "13258237000380",
            "cgf": 70556857,
            "razaoSocial": "NIPAN MASSAS CONGELADAS LTDA - ME",
            "codRegime": 1,
            "regime": "NORMAL",
            "matriz": false,
            "situacao": "Baixado Pedido",
            "jangadas": null,
            "status": null,
            "indicadores": 2,
            "divergencias": 6,
            "efdPgdas": 0,
            "inventario": 0
        },
        {
            "cnpj": "36181497000139",
            "cgf": 62097849,
            "razaoSocial": "ESTALEIRO BEBIDAS LTDA",
            "codRegime": 1,
            "regime": "NORMAL",
            "matriz": true,
            "situacao": "Ativo",
            "jangadas": 4,
            "status": null,
            "indicadores": 2,
            "divergencias": 13,
            "efdPgdas": 0,
            "inventario": 0
        },
        {
            "cnpj": "20951181000491",
            "cgf": 67364829,
            "razaoSocial": "ADE COMERCIO DE CALCADOS LTDA",
            "codRegime": 1,
            "regime": "NORMAL",
            "matriz": false,
            "situacao": "Ativo",
            "jangadas": 4,
            "status": null,
            "indicadores": 2,
            "divergencias": 27,
            "efdPgdas": 0,
            "inventario": 0
        },
        {
            "cnpj": "37780974000145",
            "cgf": 61448419,
            "razaoSocial": "TPX INDUSTRIA DE CADEIRAS E MOVEIS PARA ESCRITORIO LTDA",
            "codRegime": 7,
            "regime": "MICROEMPRESA",
            "matriz": true,
            "situacao": "Ativo",
            "jangadas": null,
            "status": null,
            "indicadores": 2,
            "divergencias": 6,
            "efdPgdas": 0,
            "inventario": 0
        },
        {
            "cnpj": "22749300000100",
            "cgf": 64570711,
            "razaoSocial": "HIDRAULICA CEARENSE SERVICO E MANUTENCAO LTDA",
            "codRegime": 1,
            "regime": "NORMAL",
            "matriz": true,
            "situacao": "Ativo",
            "jangadas": 4,
            "status": null,
            "indicadores": 2,
            "divergencias": 17,
            "efdPgdas": 0,
            "inventario": 0
        },
        {
            "cnpj": "38295532000176",
            "cgf": 71481320,
            "razaoSocial": "STRONG ENERGY LTDA - ME",
            "codRegime": 1,
            "regime": "NORMAL",
            "matriz": true,
            "situacao": "Ativo",
            "jangadas": 5,
            "status": null,
            "indicadores": 2,
            "divergencias": 2,
            "efdPgdas": 0,
            "inventario": 0
        },
        {
            "cnpj": "42639165000158",
            "cgf": 70084530,
            "razaoSocial": "F M DA SILVA HOLANDA COMERCIO DE PRODUTOS FARMACEUTICOS",
            "codRegime": 1,
            "regime": "NORMAL",
            "matriz": true,
            "situacao": "Ativo",
            "jangadas": 5,
            "status": null,
            "indicadores": 2,
            "divergencias": 4,
            "efdPgdas": 0,
            "inventario": 0
        }
    ],
    "totalElements": 327,
    "totalPages": 33,
    "pageSize": 10,
    "pageNumber": 10,
    "version": "v1"
}