{
    "data": [
        {
            "cnpj": "36010066000100",
            "cgf": 61604534,
            "razaoSocial": "LOLA INDUSTRIA E COMERCIO DE ALIMENTOS LTDA",
            "codRegime": 7,
            "regime": "MICROEMPRESA",
            "matriz": true,
            "situacao": "Ativo",
            "jangadas": null,
            "status": null,
            "indicadores": 1,
            "divergencias": 1,
            "efdPgdas": 0,
            "inventario": 0
        },
        {
            "cnpj": "08427279000104",
            "cgf": 62019139,
            "razaoSocial": "E V X COMERCIO DE ARTIGOS OPTICOS LTDA",
            "codRegime": 7,
            "regime": "MICROEMPRESA",
            "matriz": true,
            "situacao": "Ativo",
            "jangadas": null,
            "status": null,
            "indicadores": 1,
            "divergencias": 2,
            "efdPgdas": 0,
            "inventario": 0
        },
        {
            "cnpj": "05646748000937",
            "cgf": 63327260,
            "razaoSocial": "UCHOA COMERCIO DE GAS LTDA",
            "codRegime": 1,
            "regime": "NORMAL",
            "matriz": false,
            "situacao": "Baixado Pedido",
            "jangadas": null,
            "status": null,
            "indicadores": 1,
            "divergencias": 1,
            "efdPgdas": 0,
            "inventario": 1
        },
        {
            "cnpj": "43111831000143",
            "cgf": 70100896,
            "razaoSocial": "LUISIANA GIRAO LTDA",
            "codRegime": 7,
            "regime": "MICROEMPRESA",
            "matriz": true,
            "situacao": "Ativo",
            "jangadas": null,
            "status": null,
            "indicadores": 1,
            "divergencias": 1,
            "efdPgdas": 0,
            "inventario": 0
        },
        {
            "cnpj": "13258237000542",
            "cgf": 70670609,
            "razaoSocial": "NIPAN MASSAS CONGELADAS LTDA - ME",
            "codRegime": 1,
            "regime": "NORMAL",
            "matriz": false,
            "situacao": "Baixado Pedido",
            "jangadas": null,
            "status": null,
            "indicadores": 1,
            "divergencias": 1,
            "efdPgdas": 0,
            "inventario": 0
        },
        {
            "cnpj": "33537132000106",
            "cgf": 69750289,
            "razaoSocial": "COOPERATIVA AGROECOLOGICA E DE SERVICOS SAO JOAO BATISTA",
            "codRegime": 1,
            "regime": "NORMAL",
            "matriz": true,
            "situacao": "Ativo",
            "jangadas": 4,
            "status": null,
            "indicadores": 1,
            "divergencias": 1,
            "efdPgdas": 1,
            "inventario": 0
        },
        {
            "cnpj": "13254185000102",
            "cgf": 60872993,
            "razaoSocial": "RVR TURISMO E EVENTOS LTDA ME",
            "codRegime": 7,
            "regime": "MICROEMPRESA",
            "matriz": true,
            "situacao": "Ativo",
            "jangadas": null,
            "status": null,
            "indicadores": 1,
            "divergencias": 3,
            "efdPgdas": 0,
            "inventario": 0
        },
        {
            "cnpj": "40066919000100",
            "cgf": 70940584,
            "razaoSocial": "ATIVOS REABILITACAO LTDA",
            "codRegime": 1,
            "regime": "NORMAL",
            "matriz": true,
            "situacao": "Ativo",
            "jangadas": 5,
            "status": null,
            "indicadores": 1,
            "divergencias": 11,
            "efdPgdas": 0,
            "inventario": 0
        },
        {
            "cnpj": "32262716000153",
            "cgf": 67923909,
            "razaoSocial": "C. M. DA COSTA ARTIGOS PARA BEBE",
            "codRegime": 7,
            "regime": "MICROEMPRESA",
            "matriz": true,
            "situacao": "Ativo",
            "jangadas": null,
            "status": null,
            "indicadores": 1,
            "divergencias": 2,
            "efdPgdas": 0,
            "inventario": 0
        },
        {
            "cnpj": "08198069000183",
            "cgf": 63692627,
            "razaoSocial": "D C MATERIAL DE CONSTRUCAO LTDA",
            "codRegime": 9,
            "regime": "EPP",
            "matriz": true,
            "situacao": "Ativo",
            "jangadas": null,
            "status": null,
            "indicadores": 1,
            "divergencias": 1,
            "efdPgdas": 0,
            "inventario": 0
        }
    ],
    "totalElements": 327,
    "totalPages": 33,
    "pageSize": 10,
    "pageNumber": 17,
    "version": "v1"
}