{
    "data": [
        {
            "cnpj": "02174437000410",
            "cgf": 63053136,
            "razaoSocial": "PLANETA FERROVIA COM\u00c9RCIO DE PRODUTOS OPTICOS LTDA EPP",
            "codRegime": 9,
            "regime": "EPP",
            "matriz": false,
            "situacao": "Ativo",
            "jangadas": null,
            "status": null,
            "indicadores": 0,
            "divergencias": 0,
            "efdPgdas": 0,
            "inventario": 0
        },
        {
            "cnpj": "44222302000180",
            "cgf": 70290130,
            "razaoSocial": "G M M NOGUEIRA COMERCIO VAREJISTA DE MATERIAIS DE CONSTRUCAO",
            "codRegime": 7,
            "regime": "MICROEMPRESA",
            "matriz": true,
            "situacao": "Ativo",
            "jangadas": null,
            "status": null,
            "indicadores": 0,
            "divergencias": 0,
            "efdPgdas": 0,
            "inventario": 0
        },
        {
            "cnpj": "43564705000144",
            "cgf": 71289640,
            "razaoSocial": "JOSE NILSON MAIA JUNIOR",
            "codRegime": 7,
            "regime": "MICROEMPRESA",
            "matriz": true,
            "situacao": "Ativo",
            "jangadas": null,
            "status": null,
            "indicadores": 0,
            "divergencias": 0,
            "efdPgdas": 0,
            "inventario": 0
        },
        {
            "cnpj": "20948719000166",
            "cgf": 63704200,
            "razaoSocial": "COMERCIAL ACAIZINHO LTDA ME",
            "codRegime": 7,
            "regime": "MICROEMPRESA",
            "matriz": true,
            "situacao": "Ativo",
            "jangadas": null,
            "status": null,
            "indicadores": 0,
            "divergencias": 0,
            "efdPgdas": 0,
            "inventario": 0
        },
        {
            "cnpj": "42781752000187",
            "cgf": 70152713,
            "razaoSocial": "INARIO INDUSTRIA E COMERCIO DE PERSIANAS E CORTINAS LTDA",
            "codRegime": 7,
            "regime": "MICROEMPRESA",
            "matriz": true,
            "situacao": "Ativo",
            "jangadas": null,
            "status": null,
            "indicadores": 0,
            "divergencias": 0,
            "efdPgdas": 0,
            "inventario": 0
        },
        {
            "cnpj": "42639165000239",
            "cgf": 71238581,
            "razaoSocial": "F M DA SILVA HOLANDA COMERCIO DE PRODUTOS FARMACEUTICOS - EP",
            "codRegime": 1,
            "regime": "NORMAL",
            "matriz": false,
            "situacao": "Ativo",
            "jangadas": 5,
            "status": null,
            "indicadores": 0,
            "divergencias": 0,
            "efdPgdas": 0,
            "inventario": 0
        },
        {
            "cnpj": "53906494000134",
            "cgf": 71774289,
            "razaoSocial": "ACO IP LTDA - ME",
            "codRegime": 7,
            "regime": "MICROEMPRESA",
            "matriz": true,
            "situacao": "Baixado Pedido",
            "jangadas": null,
            "status": null,
            "indicadores": 0,
            "divergencias": 0,
            "efdPgdas": 0,
            "inventario": 0
        },
        {
            "cnpj": "54029854000120",
            "cgf": 71784365,
            "razaoSocial": "ASLONEM BEBIDAS LTDA - ME",
            "codRegime": 7,
            "regime": "MICROEMPRESA",
            "matriz": true,
            "situacao": "Ativo",
            "jangadas": null,
            "status": null,
            "indicadores": 0,
            "divergencias": 0,
            "efdPgdas": 0,
            "inventario": 0
        },
        {
            "cnpj": "09541349000105",
            "cgf": 63669889,
            "razaoSocial": "A.S. BESERRA COMERCIO DE ARTIGOS \u00d3PTICOS LTDA EPP",
            "codRegime": 9,
            "regime": "EPP",
            "matriz": true,
            "situacao": "Ativo",
            "jangadas": null,
            "status": null,
            "indicadores": 0,
            "divergencias": 0,
            "efdPgdas": 0,
            "inventario": 0
        },
        {
            "cnpj": "40987616000112",
            "cgf": 61221880,
            "razaoSocial": "RR PIZZARIA E MASSAS LTDA",
            "codRegime": 7,
            "regime": "MICROEMPRESA",
            "matriz": true,
            "situacao": "Ativo",
            "jangadas": null,
            "status": null,
            "indicadores": 0,
            "divergencias": 0,
            "efdPgdas": 0,
            "inventario": 0
        }
    ],
    "totalElements": 327,
    "totalPages": 33,
    "pageSize": 10,
    "pageNumber": 25,
    "version": "v1"
}