{
    "data": [
        {
            "cnpj": "48472308000166",
            "cgf": 70953899,
            "razaoSocial": "JUNIOR CAR MECANICA ESPECIALIZADA LTDA",
            "codRegime": 7,
            "regime": "MICROEMPRESA",
            "matriz": true,
            "situacao": "Ativo",
            "jangadas": null,
            "status": null,
            "indicadores": 1,
            "divergencias": 2,
            "efdPgdas": 0,
            "inventario": 0
        },
        {
            "cnpj": "05646748000856",
            "cgf": 66050090,
            "razaoSocial": "UCHOA COMERCIO DE GAS LTDA",
            "codRegime": 1,
            "regime": "NORMAL",
            "matriz": false,
            "situacao": "Ativo",
            "jangadas": 1,
            "status": null,
            "indicadores": 1,
            "divergencias": 3,
            "efdPgdas": 0,
            "inventario": 0
        },
        {
            "cnpj": "45095779000104",
            "cgf": 70434492,
            "razaoSocial": "TOSHIBA GOURMET RESTAURANTE LTDA",
            "codRegime": 7,
            "regime": "MICROEMPRESA",
            "matriz": true,
            "situacao": "Ativo",
            "jangadas": null,
            "status": null,
            "indicadores": 1,
            "divergencias": 1,
            "efdPgdas": 0,
            "inventario": 0
        },
        {
            "cnpj": "47569716000178",
            "cgf": 70806772,
            "razaoSocial": "P S ACESSORIOS TATICOS LTDA",
            "codRegime": 7,
            "regime": "MICROEMPRESA",
            "matriz": true,
            "situacao": "Ativo",
            "jangadas": null,
            "status": null,
            "indicadores": 1,
            "divergencias": 41,
            "efdPgdas": 0,
            "inventario": 0
        },
        {
            "cnpj": "50623645000582",
            "cgf": 72171782,
            "razaoSocial": "JOLIE-CE COMECIO DE CALCADOS LTDA - EPP",
            "codRegime": 1,
            "regime": "NORMAL",
            "matriz": false,
            "situacao": "Ativo",
            "jangadas": 4,
            "status": null,
            "indicadores": 1,
            "divergencias": 5,
            "efdPgdas": 0,
            "inventario": 0
        },
        {
            "cnpj": "55520278000181",
            "cgf": 71973125,
            "razaoSocial": "A J V COMERCIO VAREJISTA DE PRODUTOS FARMACEUTICOS LTDA",
            "codRegime": 7,
            "regime": "MICROEMPRESA",
            "matriz": true,
            "situacao": "Ativo",
            "jangadas": null,
            "status": null,
            "indicadores": 1,
            "divergencias": 1,
            "efdPgdas": 0,
            "inventario": 1
        },
        {
            "cnpj": "12346125000157",
            "cgf": 64082490,
            "razaoSocial": "MADEARTS MDF LTDA",
            "codRegime": 7,
            "regime": "MICROEMPRESA",
            "matriz": true,
            "situacao": "Ativo",
            "jangadas": null,
            "status": null,
            "indicadores": 0,
            "divergencias": 0,
            "efdPgdas": 0,
            "inventario": 0
        },
        {
            "cnpj": "28775766000167",
            "cgf": 66946590,
            "razaoSocial": "CDI PRODUTOS FARMACEUTICOS LTDA",
            "codRegime": 7,
            "regime": "MICROEMPRESA",
            "matriz": true,
            "situacao": "Ativo",
            "jangadas": null,
            "status": null,
            "indicadores": 0,
            "divergencias": 0,
            "efdPgdas": 0,
            "inventario": 0
        },
        {
            "cnpj": "11805777000140",
            "cgf": 60348526,
            "razaoSocial": "INBRASOL INDUSTRIA DE PRODUTOS OPTICOS LTDA - EPP",
            "codRegime": 9,
            "regime": "EPP",
            "matriz": true,
            "situacao": "Ativo",
            "jangadas": null,
            "status": null,
            "indicadores": 0,
            "divergencias": 0,
            "efdPgdas": 0,
            "inventario": 0
        },
        {
            "cnpj": "07873084000389",
            "cgf": 65786459,
            "razaoSocial": "A L B COMERCIO DE CALCADOS LTDA",
            "codRegime": 9,
            "regime": "EPP",
            "matriz": false,
            "situacao": "Ativo",
            "jangadas": null,
            "status": null,
            "indicadores": 0,
            "divergencias": 0,
            "efdPgdas": 0,
            "inventario": 0
        }
    ],
    "totalElements": 327,
    "totalPages": 33,
    "pageSize": 10,
    "pageNumber": 19,
    "version": "v1"
}